Name,Sex,WeightClassKg,BodyweightKg,Squat1Kg,Squat2Kg,Squat3Kg,Best3SquatKg,Bench1Kg,Bench2Kg,Bench3Kg,Bench4Kg,Best3BenchKg,Deadlift1Kg,Deadlift2Kg,Deadlift3Kg,Deadlift4Kg,Best3DeadliftKg,TotalKg,Place,Event,Equipment,Division,BirthDate
Maitane Rubio,F,52,51.2,-95,-95,95,95,47.5,50,52.5,,52.5,95,105,110.5,112.5,110.5,258,5,SBD,Wraps,SNR,
Jordi Doval,M,82.5,76,135,145,157.5,157.5,-115,120,125,,125,180,190,200,,200,482.5,4,SBD,Wraps,SNR,
Ricard Vila,M,90,88.5,135,145,160,160,65,75,82.5,,82.5,190,200,-210,,200,442.5,6,SBD,Wraps,SNR,
Jose Angulo,M,75,71.8,175,-180,180,180,120,125.5,127.5,130,127.5,160,170,-180,,170,477.5,2,SBD,Wraps,SNR,
Jordi Lopez,M,100,95.3,190,205,207.5,207.5,130,140,-142.5,,140,215,-230,-230,,215,562.5,3,SBD,Wraps,SNR,
David Gomis,M,110,103.5,215,-222.5,-222.5,215,150,160,165,,165,230,-240,-240,,230,610,1,SBD,Wraps,SNR,
Victor Aparicio,M,,,,,,,,,,,,,,,,,,NS,SBD,Wraps,SNR,
