Division,WeightClassKg,Place,Name,Team,BodyweightKg,Best3SquatKg,Best3BenchKg,Best3DeadliftKg,TotalKg,Equipment,Event,Sex
Boys,51.71,1,Matt Lowe,Carrollton Ranchview,51.03,72.57,47.63,97.52,217.72,Single-ply,SBD,M
Boys,51.71,2,Roberto Parra,Carrollton Creekview,49.9,72.57,43.09,65.77,181.44,Single-ply,SBD,M
Boys,55.79,1,Roach Marcel,Carrollton Creekview,54.43,129.27,63.5,129.27,322.05,Single-ply,SBD,M
Boys,55.79,2,Ryan Allo,Carrollton Creekview,54.88,124.74,77.11,117.93,319.78,Single-ply,SBD,M
Boys,55.79,3,Michael Vera,Carrollton Ranchview,53.52,74.84,56.7,111.13,242.67,Single-ply,SBD,M
Boys,55.79,4,Brian Morgan,Carrollton Ranchview,53.98,77.11,47.63,83.91,208.65,Single-ply,SBD,M
Boys,59.87,1,Kareem Williams,Carrollton Ranchview,58.97,172.37,97.52,142.88,412.77,Single-ply,SBD,M
Boys,59.87,2,Kendall Kyles,Carrollton Ranchview,58.29,145.15,83.91,154.22,383.29,Single-ply,SBD,M
Boys,59.87,3,Erick Ginn,Carrollton Ranchview,59.42,122.47,65.77,117.93,306.17,Single-ply,SBD,M
Boys,59.87,4,Paco Silas,Carrollton Ranchview,59.19,111.13,65.77,113.4,290.3,Single-ply,SBD,M
Boys,59.87,5,Anthony Bell,Carrollton Ranchview,58.51,68.04,47.63,83.91,199.58,Single-ply,SBD,M
Boys,67.13,1,Alex Keeton,Dallas Highland Park,67.13,167.83,108.86,161.03,437.72,Single-ply,SBD,M
Boys,67.13,2,Anthony Smith #7,Carrollton Ranchview,66.68,106.59,72.57,113.4,292.57,Single-ply,SBD,M
Boys,67.13,3,Kevin Vasquez,Carrollton Creekview,65.77,102.06,56.7,90.72,249.48,Single-ply,SBD,M
Boys,74.84,1,Marcus Wimby,Carrollton Ranchview,74.62,183.7,113.4,185.97,483.08,Single-ply,SBD,M
Boys,74.84,2,Chris Wimby,Carrollton Ranchview,74.84,161.03,113.4,185.97,460.4,Single-ply,SBD,M
Boys,74.84,3,Carter Gibson,Dallas Highland Park,69.85,142.88,97.52,154.22,394.63,Single-ply,SBD,M
Boys,74.84,4,Kahlil Edwards,Carrollton Ranchview,70.31,124.74,70.31,142.88,337.93,Single-ply,SBD,M
Boys,74.84,5,Ethan Abels,Carrollton Creekview,68.04,129.27,72.57,122.47,324.32,Single-ply,SBD,M
Boys,74.84,6,Matthew MacDonald,Carrollton Ranchview,71.67,106.59,79.38,129.27,315.25,Single-ply,SBD,M
Boys,82.1,1,Michael Kim,Carrollton Ranchview,82.1,161.03,83.91,158.76,403.7,Single-ply,SBD,M
Boys,82.1,2,Josh Garcias,Carrollton Creekview,82.1,113.4,115.67,136.08,365.14,Single-ply,SBD,M
Boys,82.1,3,Charlie Mitchell #1,Dallas Highland Park,78.93,129.27,81.65,142.88,353.8,Single-ply,SBD,M
Boys,82.1,4,Malik Johnson,Carrollton Ranchview,78.7,136.08,,,136.08,Single-ply,S,M
Boys,89.81,1,Josh Wisely,Carrollton Ranchview,89.58,249.48,147.42,199.58,596.47,Single-ply,SBD,M
Boys,89.81,2,Mac Hartley,Dallas Highland Park,89.81,192.78,122.47,208.65,523.9,Single-ply,SBD,M
Boys,89.81,3,Adrian Williams,Carrollton Creekview,84.82,183.7,117.93,183.7,485.34,Single-ply,SBD,M
Boys,89.81,4,Ian Hayashi,Dallas Highland Park,82.55,167.83,106.59,188.24,462.66,Single-ply,SBD,M
Boys,89.81,5,Mason Shaw,Dallas Highland Park,83.01,167.83,106.59,185.97,460.4,Single-ply,SBD,M
Boys,89.81,6,Harrison Jones,Dallas Highland Park,88.45,158.76,111.13,167.83,437.72,Single-ply,SBD,M
Boys,89.81,7,Luke Ross #2,Dallas Highland Park,88,151.95,129.27,154.22,435.45,Single-ply,SBD,M
Boys,89.81,8,Hilton Kennington,Dallas Highland Park,87.09,136.08,86.18,138.35,360.61,Single-ply,SBD,M
Boys,99.79,1,Marcus Trevino,Carrollton Creekview,99.79,199.58,138.35,192.78,530.7,Single-ply,SBD,M
Boys,99.79,2,Tony Perez,Dallas Highland Park,95.25,185.97,124.74,195.04,505.76,Single-ply,SBD,M
Boys,99.79,3,Josh Williams,Dallas Highland Park,96.16,181.44,131.54,188.24,501.22,Single-ply,SBD,M
Boys,99.79,4,Julius Hall,Carrollton Ranchview,92.99,188.24,111.13,188.24,487.61,Single-ply,SBD,M
Boys,99.79,5,Nick Salinaro,Dallas Highland Park,95.71,161.03,111.13,192.78,464.93,Single-ply,SBD,M
Boys,99.79,6,Barker Carlock,Dallas Highland Park,91.63,181.44,115.67,165.56,462.66,Single-ply,SBD,M
Boys,109.77,7,Xavier Frederick,Carrollton Ranchview,100.02,181.44,102.06,170.1,453.59,Single-ply,SBD,M
Boys,99.79,8,Malcolm Price,Carrollton Ranchview,93.21,151.95,102.06,197.31,451.32,Single-ply,SBD,M
Boys,109.77,1,Richard Johnson,Carrollton Ranchview,109.54,215.46,142.88,229.06,587.4,Single-ply,SBD,M
Boys,109.77,2,Coleman Glass,Dallas Highland Park,107.5,188.24,158.76,181.44,528.44,Single-ply,SBD,M
Boys,109.77,3,Tanner Stone,Dallas Highland Park,108.41,183.7,124.74,183.7,492.15,Single-ply,SBD,M
Boys,109.77,4,Adam Harding,Carrollton Creekview,108.86,183.7,108.86,188.24,480.81,Single-ply,SBD,M
Boys,109.77,5,Clay Crews,Dallas Highland Park,103.87,170.1,117.93,172.37,460.4,Single-ply,SBD,M
Boys,109.77,6,Eathan Beasley,Dallas Highland Park,108.41,181.44,97.52,174.63,453.59,Single-ply,SBD,M
Boys,109.77,7,Tanner Hutt,Dallas Highland Park,108.41,142.88,115.67,181.44,439.98,Single-ply,SBD,M
Boys,109.77,8,William Barns,Dallas Highland Park,108.41,145.15,102.06,167.83,415.04,Single-ply,SBD,M
Boys,109.77,9,Daquan Washington,Carrollton Ranchview,100.7,158.76,79.38,140.61,378.75,Single-ply,SBD,M
Boys,124.74,1,Jack Howard,Dallas Highland Park,117.03,183.7,108.86,170.1,462.66,Single-ply,SBD,M
Boys,124.74+,1,Arnold DeLaCruz,Carrollton Creekview,128.82,192.78,136.08,192.78,521.63,Single-ply,SBD,M
