Division,WeightClassKg,Place,Name,Team,BodyweightKg,Best3SquatKg,Best3BenchKg,Best3DeadliftKg,TotalKg,Equipment,Event,Sex,BirthDate
Boys,51.71,1,Ben Marin,Wichita Falls,50.94,124.74,68.04,129.27,322.05,Single-ply,SBD,M,
Boys,51.71,2,Nathaniel Donaghey,Electra,51.62,115.67,77.11,120.2,312.98,Single-ply,SBD,M,
Boys,51.71,3,Jace Yarbrough,Iowa Park,50.12,117.93,72.57,120.2,310.71,Single-ply,SBD,M,
Boys,51.71,4,Monte Kerr,Iowa Park,50.8,113.4,65.77,120.2,299.37,Single-ply,SBD,M,
Boys,51.71,5,Matthew DeLaGarza,Wichita Falls City View,50.98,68.04,49.9,102.06,219.99,Single-ply,SBD,M,
Boys,55.79,1,Riggen Thaggard,Electra,54.88,117.93,79.38,147.42,344.73,Single-ply,SBD,M,
Boys,59.87,1,Francisco Balderas,Vernon,59.87,183.7,113.4,208.65,505.76,Single-ply,SBD,M,
Boys,59.87,2,Adian Bagley,Wichita Falls City View,57.7,106.59,68.04,131.54,306.17,Single-ply,SBD,M,
Boys,67.13,1,Htoo Wah,Vernon,64.41,181.44,99.79,179.17,460.4,Single-ply,SBD,M,
Boys,67.13,2,Callon Yarbrough,Iowa Park,66.68,151.95,90.72,172.37,415.04,Single-ply,SBD,M,
Boys,67.13,3,Adarius Williams,Vernon,63.5,136.08,77.11,154.22,367.41,Single-ply,SBD,M,
Boys,67.13,4,Kaden Cote,Electra,63.46,129.27,81.65,147.42,358.34,Single-ply,SBD,M,
Boys,67.13,5,Adrian Lanier,Wichita Falls Hirschi,67.13,122.47,68.04,145.15,335.66,Single-ply,SBD,M,
Boys,74.84,1,Carson Stevens,Iowa Park,74.62,260.82,158.76,226.8,646.37,Single-ply,SBD,M,
Boys,74.84,2,Tin Nguyen,Wichita Falls City View,74.48,238.14,117.93,215.46,571.53,Single-ply,SBD,M,
Boys,74.84,3,Kason Major,Burkburnett,74.39,201.85,133.81,208.65,544.31,Single-ply,SBD,M,
Boys,74.84,4,Don Todd,Iowa Park,74.39,201.85,122.47,206.38,530.7,Single-ply,SBD,M,
Boys,74.84,5,Trevor Patterson,Electra,73.07,195.04,120.2,190.51,505.76,Single-ply,SBD,M,
Boys,74.84,6,Ismael Trejo,Vernon,74.84,185.97,113.4,204.12,503.49,Single-ply,SBD,M,
Boys,74.84,7,Johnny Borne,Wichita Falls,73.94,174.63,97.52,183.7,455.86,Single-ply,SBD,M,
Boys,74.84,8,Bradley Lovelace,Burkburnett,68.13,158.76,92.99,174.63,426.38,Single-ply,SBD,M,
Boys,74.84,9,Cayse Jung,Wichita Falls Rider,70.94,154.22,90.72,172.37,417.3,Single-ply,SBD,M,
Boys,74.84,10,Kole Skipper,Wichita Falls Rider,69.04,156.49,92.99,163.29,412.77,Single-ply,SBD,M,
Boys,74.84,11,Jaden Imel,Wichita Falls City View,72.53,149.69,79.38,170.1,399.16,Single-ply,SBD,M,
Boys,74.84,12,Vicente Guevra,Wichita Falls,73.21,142.88,79.38,174.63,396.89,Single-ply,SBD,M,
Boys,74.84,13,Nic Cole,Wichita Falls,74.39,124.74,81.65,145.15,351.53,Single-ply,SBD,M,
Boys,74.84,14,Nick Guzman,Vernon,72.57,124.74,70.31,147.42,342.46,Single-ply,SBD,M,
Boys,82.1,1,Cj Miser,Iowa Park,81.42,215.46,149.69,226.8,591.94,Single-ply,SBD,M,
Boys,82.1,2,Jonathan Pounds,Iowa Park,81.87,206.38,149.69,206.38,562.45,Single-ply,SBD,M,
Boys,82.1,3,Bryson McKnight,Iowa Park,78.47,208.65,142.88,204.12,555.65,Single-ply,SBD,M,
Boys,82.1,4,Niko Tinsley,Wichita Falls City View,81.65,204.12,111.13,226.8,542.04,Single-ply,SBD,M,
Boys,82.1,5,Cooper Kidwell,Iowa Park,78.93,183.7,138.35,197.31,519.36,Single-ply,SBD,M,
Boys,82.1,6,Hyme Guzman,Vernon,82.1,183.7,115.67,215.46,514.83,Single-ply,SBD,M,
Boys,82.1,7,Shyne Rodriguez,Vernon,81.65,163.29,111.13,208.65,483.08,Single-ply,SBD,M,
Boys,82.1,8,Kiauntre Greshman,Wichita Falls City View,79.7,183.7,108.86,181.44,474,Single-ply,SBD,M,
Boys,82.1,9,Cj Johnson,Vernon,80.74,154.22,83.91,199.58,437.72,Single-ply,SBD,M,
Boys,89.81,1,Coleman Bledsoe,Wichita Falls Rider,84.19,229.06,124.74,222.26,576.06,Single-ply,SBD,M,
Boys,89.81,2,Evan Rios,Wichita Falls Rider,84.82,213.19,124.74,204.12,542.04,Single-ply,SBD,M,
Boys,89.81,3,Joshua Gaitan,Iowa Park,89.81,206.38,115.67,192.78,514.83,Single-ply,SBD,M,
Boys,89.81,4,Mason Phillips,Vernon,88.45,147.42,99.79,154.22,401.43,Single-ply,SBD,M,
Boys,89.81,5,Cayden Resendez-Sigle,Wichita Falls Hirschi,89.81,151.95,68.04,172.37,392.36,Single-ply,SBD,M,
Boys,99.79,1,Jourdain Durham,Wichita Falls City View,90.85,283.5,181.44,249.48,714.41,Single-ply,SBD,M,
Boys,99.79,2,Corbyn Sales,Iowa Park,90.95,263.08,147.42,254.01,664.51,Single-ply,SBD,M,
Boys,99.79,3,Kirk Finnell,Wichita Falls Rider,98.97,244.94,145.15,204.12,594.21,Single-ply,SBD,M,
Boys,99.79,4,Javian Frazier,Wichita Falls Hirschi,99.79,199.58,138.35,213.19,551.11,Single-ply,SBD,M,
Boys,99.79,5,Judah Perez,Wichita Falls Rider,98.25,188.24,117.93,170.1,476.27,Single-ply,SBD,M,
Boys,99.79,6,Joel Davenport,Wichita Falls,99.11,185.97,95.25,183.7,464.93,Single-ply,SBD,M,
Boys,99.79,7,Geovanni Salas,Electra,94.89,158.76,88.45,190.51,437.72,Single-ply,SBD,M,
Boys,109.77,1,Zach Clark,Iowa Park,100.7,272.16,197.31,249.48,718.94,Single-ply,SBD,M,
Boys,109.77,2,Jeff Ross,Wichita Falls Rider,102.78,254.01,151.95,226.8,632.76,Single-ply,SBD,M,
Boys,109.77,3,Luke Short,Petrolia,101.15,204.12,163.29,201.85,569.26,Single-ply,SBD,M,
Boys,109.77,4,Corbyn Oden,Iowa Park,101.15,235.87,136.08,192.78,564.72,Single-ply,SBD,M,
Boys,109.77,5,Gideon Perez,Wichita Falls Rider,106.32,233.6,136.08,188.24,557.92,Single-ply,SBD,M,
Boys,109.77,6,Cason Green,Iowa Park,109.32,238.14,124.74,165.56,528.44,Single-ply,SBD,M,
Boys,109.77,7,Gavin Treadway,Iowa Park,104.78,197.31,124.74,190.51,512.56,Single-ply,SBD,M,
Boys,109.77,8,Kevin Cruz,Wichita Falls Hirschi,109.77,181.44,104.33,165.56,451.32,Single-ply,SBD,M,
Boys,124.74,1,Ashton Dickinson,Vernon,115.67,219.99,129.27,226.8,576.06,Single-ply,SBD,M,
Boys,124.74,2,Joseph Holst,Wichita Falls Rider,109.86,222.26,136.08,188.24,546.58,Single-ply,SBD,M,
Boys,124.74,3,Matthew Balderas,Wichita Falls Hirschi,124.74,174.63,124.74,181.44,480.81,Single-ply,SBD,M,
Boys,124.74,4,Issac Ibarra,Wichita Falls,111.13,185.97,102.06,174.63,462.66,Single-ply,SBD,M,
Boys,139.71,1,Mason Hill,Wichita Falls City View,126.1,340.19,158.76,249.48,748.43,Single-ply,SBD,M,
Boys,139.71,2,Colton Green,Wichita Falls Rider,136.98,238.14,156.49,213.19,607.81,Single-ply,SBD,M,
Boys,139.71+,1,Mekhi Robinson,Wichita Falls Rider,146.69,272.16,156.49,183.7,612.35,Single-ply,SBD,M,
Boys,139.71+,2,Hilton Murphy,Wichita Falls Hirschi,140.61,149.69,88.45,183.7,421.84,Single-ply,SBD,M,
