Division,WeightClassKg,Place,Name,Team,BodyweightKg,Best3SquatKg,Best3BenchKg,Best3DeadliftKg,TotalKg,Equipment,Event,Sex
Boys,55.79,1,Matthew Riddick,Crosby,51.89,111.13,56.7,131.54,299.37,Single-ply,SBD,M
Boys,51.71,2,Connor Wakeford,Houston Cypress Woods,49.35,92.99,49.9,90.72,233.6,Single-ply,SBD,M
Boys,55.79,1,Jamahl Johnson,Houston Cypress Woods,55.34,156.49,92.99,174.63,424.11,Single-ply,SBD,M
Boys,55.79,2,Cecilio Hernandez,Dickinson,54.88,136.08,72.57,145.15,353.8,Single-ply,SBD,M
Boys,55.79,3,Cody Tunning,Montgomery,52.16,102.06,68.04,122.47,292.57,Single-ply,SBD,M
Boys,55.79,4,Gafar Akinpelu,Alief Taylor,54.34,83.91,72.57,115.67,272.16,Single-ply,SBD,M
Boys,55.79,5,Mikey Roberts,Houston Cypress Woods,55.79,97.52,61.23,113.4,272.16,Single-ply,SBD,M
Boys,55.79,6,Ej Smith,Beaumont Ozen,54.16,63.5,43.09,99.79,206.38,Single-ply,SBD,M
Boys,55.79,DQ,Evan Wyble,Beaumont Ozen,54.61,68.04,,,,Single-ply,SBD,M
Boys,59.87,1,Kenny Nguyen,Dickinson,58.79,210.92,163.29,204.12,578.33,Single-ply,SBD,M
Boys,67.13,2,Pedro Vazquez #2,Katy Mayde Creek,60.06,124.74,102.06,158.76,385.55,Single-ply,SBD,M
Boys,59.87,3,Donovan Lee,Katy Mayde Creek,58.51,136.08,79.38,158.76,374.21,Single-ply,SBD,M
Boys,67.13,4,Angel Galvan,Crosby,60.06,102.06,77.11,131.54,310.71,Single-ply,SBD,M
Boys,59.87,5,JC Hooper,Montgomery,57.06,104.33,79.38,122.47,306.17,Single-ply,SBD,M
Boys,67.13,6,Jacob Mears,Beaumont Ozen,60.1,102.06,72.57,131.54,306.17,Single-ply,SBD,M
Boys,74.84,1,Calvin Laskey,Katy Mayde Creek,67.31,183.7,113.4,204.12,501.22,Single-ply,SBD,M
Boys,67.13,2,Alec DeLeon,Dickinson,65.86,195.04,104.33,172.37,471.74,Single-ply,SBD,M
Boys,67.13,3,Fidencio Cruz,Dickinson,60.96,158.76,102.06,188.24,449.06,Single-ply,SBD,M
Boys,67.13,4,Hector Larios,Houston Cypress Woods,67.04,149.69,83.91,151.95,385.55,Single-ply,SBD,M
Boys,67.13,5,Peter Garza,Houston Cypress Woods,63.96,149.69,81.65,142.88,374.21,Single-ply,SBD,M
Boys,67.13,6,Caleb Hall,Montgomery,62.96,138.35,81.65,145.15,365.14,Single-ply,SBD,M
Boys,67.13,7,Andrew Smalls,Brookshire Royal,66.13,133.81,83.91,129.27,347,Single-ply,SBD,M
Boys,67.13,DQ,Andrew Hackett,Crosby,64.68,102.06,,,,Single-ply,SBD,M
Boys,74.84,1,Eric Johnson,Houston Cypress Woods,72.03,213.19,117.93,210.92,542.04,Single-ply,SBD,M
Boys,74.84,2,Ryan McBride,Dayton,72.12,201.85,111.13,217.72,530.7,Single-ply,SBD,M
Boys,74.84,3,Travis Hill,Pasadena Memorial,74.12,185.97,113.4,217.72,517.1,Single-ply,SBD,M
Boys,74.84,4,Thomas Bridges,Dickinson,74.39,201.85,117.93,190.51,510.29,Single-ply,SBD,M
Boys,74.84,5,Dillon Baker,Tomball,73.75,170.1,133.81,183.7,487.61,Single-ply,SBD,M
Boys,74.84,6,Shak Long,Dayton,73.57,170.1,111.13,204.12,485.34,Single-ply,SBD,M
Boys,74.84,7,Victor De La Garza,Brookshire Royal,69.31,161.03,102.06,161.03,424.11,Single-ply,SBD,M
Boys,74.84,8,David Pina,Dickinson,67.86,147.42,86.18,174.63,408.23,Single-ply,SBD,M
Boys,74.84,9,Christian Busby,Brookshire Royal,71.85,151.95,74.84,167.83,394.63,Single-ply,SBD,M
Boys,74.84,10,Dezmon Simpson,Beaumont Ozen,69.22,113.4,77.11,142.88,333.39,Single-ply,SBD,M
Boys,74.84,DQ,Eduardo Ayala,Pasadena Rayburn,71.3,,,,,Single-ply,SBD,M
Boys,82.1,DQ,Ronald Winston,Katy Mayde Creek,75.02,231.33,,,,Single-ply,SBD,M
Boys,82.1,1,Toney Robinson,Dayton,81.65,215.46,122.47,242.67,580.6,Single-ply,SBD,M
Boys,82.1,2,Kyle Leal,Crosby,79.56,215.46,142.88,219.99,578.33,Single-ply,SBD,M
Boys,89.81,3,Percy Alford,Tomball,82.28,222.26,140.61,215.46,578.33,Single-ply,SBD,M
Boys,82.1,4,Chris Okwegba,Alief Taylor,77.38,206.38,111.13,206.38,523.9,Single-ply,SBD,M
Boys,82.1,5,Daniel Douglas,Dayton,80.47,204.12,111.13,197.31,512.56,Single-ply,SBD,M
Boys,82.1,6,Lyle Buckner,Crosby,82.1,183.7,106.59,197.31,487.61,Single-ply,SBD,M
Boys,82.1,7,Kyle Oswald,Houston Cypress Woods,75.84,165.56,120.2,197.31,483.08,Single-ply,SBD,M
Boys,82.1,8,Leland Young,Dickinson,80.56,190.51,92.99,192.78,476.27,Single-ply,SBD,M
Boys,82.1,9,Brandon McBride,Dayton,78.11,183.7,102.06,181.44,467.2,Single-ply,SBD,M
Boys,82.1,10,Jordan Daigle,Beaumont Ozen,77.56,138.35,97.52,199.58,435.45,Single-ply,SBD,M
Boys,82.1,11,Dodi Vasquez,Dickinson,77.02,158.76,95.25,149.69,403.7,Single-ply,SBD,M
Boys,82.1,12,Christopher Lewis,Beaumont Ozen,81.37,142.88,131.54,127.01,401.43,Single-ply,SBD,M
Boys,82.1,13,Tucker Niesner,Montgomery,79.29,149.69,83.91,158.76,392.36,Single-ply,SBD,M
Boys,82.1,14,Henry Garcia #2,Brookshire Royal,78.74,142.88,70.31,170.1,383.29,Single-ply,SBD,M
Boys,82.1,15,Casey Harmier,Tomball,77.47,133.81,88.45,142.88,365.14,Single-ply,SBD,M
Boys,99.79,1,Donovon Jackson,Dayton,89.9,210.92,158.76,231.33,601.01,Single-ply,SBD,M
Boys,89.81,2,Sam Garza,Montgomery,84.91,226.8,142.88,199.58,569.26,Single-ply,SBD,M
Boys,89.81,3,Trey Taylor,Brookshire Royal,86.45,190.51,115.67,195.04,501.22,Single-ply,SBD,M
Boys,89.81,4,Nick Czatlos,Houston Cypress Woods,88.09,183.7,92.99,206.38,483.08,Single-ply,SBD,M
Boys,89.81,5,Blake Wright,Crosby,83.28,170.1,106.59,204.12,480.81,Single-ply,SBD,M
Boys,89.81,6,Julien Kyles,Dickinson,86.27,183.7,102.06,172.37,458.13,Single-ply,SBD,M
Boys,89.81,7,Westin Goodman,Tomball,89.36,170.1,113.4,170.1,453.59,Single-ply,SBD,M
Boys,89.81,8,Treylan Joubert,Beaumont Ozen,83.64,149.69,99.79,192.78,442.25,Single-ply,SBD,M
Boys,89.81,9,Germain Zuniga,Pasadena Rayburn,87.91,145.15,124.74,165.56,435.45,Single-ply,SBD,M
Boys,89.81,10,Marques Campbell,Dickinson,83.1,195.04,90.72,142.88,428.64,Single-ply,SBD,M
Boys,89.81,11,Eric Mexicano,Pasadena Memorial,85.28,136.08,104.33,183.7,424.11,Single-ply,SBD,M
Boys,89.81,12,Darrell Fobbes,Brookshire Royal,84.19,156.49,68.04,181.44,405.97,Single-ply,SBD,M
Boys,89.81,13,Hermandre Williams,Tomball,88.81,147.42,106.59,142.88,396.89,Single-ply,SBD,M
Boys,89.81,14,Cleaon Jolly,Dickinson,82.83,142.88,92.99,151.95,387.82,Single-ply,SBD,M
Boys,89.81,DQ,Benji Meche,Crosby,83.1,219.99,140.61,,,Single-ply,SBD,M
Boys,89.81,DQ,Derrick Bailey,Montgomery,84.19,,,,,Single-ply,SBD,M
Boys,99.79,1,Jerry Medford,Alief Taylor,95.16,219.99,129.27,222.26,571.53,Single-ply,SBD,M
Boys,99.79,2,Chase Nix,Crosby,91.17,217.72,129.27,222.26,569.26,Single-ply,SBD,M
Boys,99.79,3,Jose Aguilar,Pasadena Memorial,98.52,204.12,117.93,219.99,542.04,Single-ply,SBD,M
Boys,99.79,4,Dillon Anderson #2,Katy Mayde Creek,97.52,185.97,136.08,204.12,526.17,Single-ply,SBD,M
Boys,99.79,5,Jeremy Orange,Houston Cypress Woods,98.79,206.38,115.67,183.7,505.76,Single-ply,SBD,M
Boys,99.79,6,Zach Kapalski,Dayton,98.07,183.7,106.59,181.44,471.74,Single-ply,SBD,M
Boys,99.79,7,Jason French,Tomball,95.8,151.95,113.4,188.24,453.59,Single-ply,SBD,M
Boys,99.79,8,Christian Rodriquez,Pasadena Memorial,96.52,158.76,104.33,165.56,428.64,Single-ply,SBD,M
Boys,99.79,9,Wyatt Glazier,Montgomery,97.25,165.56,90.72,167.83,424.11,Single-ply,SBD,M
Boys,99.79,10,Jason Weeden,Pasadena Memorial,92.44,147.42,81.65,185.97,415.04,Single-ply,SBD,M
Boys,99.79,11,Jared Reedy,Dickinson,99.06,165.56,90.72,149.69,405.97,Single-ply,SBD,M
Boys,99.79,12,Jorge Oviedo,Pasadena Memorial,93.89,120.2,92.99,181.44,394.63,Single-ply,SBD,M
Boys,109.77,1,Charles Flores,Dickinson,102.51,226.8,151.95,238.14,616.89,Single-ply,SBD,M
Boys,109.77,2,Tremonte Green,Crosby,106.96,247.21,145.15,224.53,616.89,Single-ply,SBD,M
Boys,109.77,3,Reno Dominguez,Katy Mayde Creek,102.87,272.16,122.47,215.46,610.08,Single-ply,SBD,M
Boys,109.77,DQ,Charles Tousant,Dayton,105.87,,,,,Single-ply,SBD,M
Boys,109.77,5,Dustin Castleberry,Montgomery,108.77,240.4,140.61,215.46,596.47,Single-ply,SBD,M
Boys,109.77,6,Eduardo Moran,Katy Mayde Creek,107.95,226.8,136.08,217.72,580.6,Single-ply,SBD,M
Boys,109.77,7,Jorge Robles,Pasadena Rayburn,109.32,229.06,106.59,183.7,519.36,Single-ply,SBD,M
Boys,109.77,8,Miguel Neaves,Pasadena Rayburn,108.68,192.78,115.67,201.85,510.29,Single-ply,SBD,M
Boys,109.77,9,Andrew Velasco,Katy Mayde Creek,109.13,201.85,113.4,190.51,505.76,Single-ply,SBD,M
Boys,109.77,10,Ricardo Santana,Tomball,106.87,204.12,102.06,179.17,485.34,Single-ply,SBD,M
Boys,109.77,11,Brandon Brock,Montgomery,105.05,163.29,131.54,170.1,464.93,Single-ply,SBD,M
Boys,109.77,12,Darius Fisher,Pasadena Rayburn,107.14,183.7,117.93,163.29,464.93,Single-ply,SBD,M
Boys,109.77,13,Martin Vences,Brookshire Royal,106.96,165.56,79.38,176.9,421.84,Single-ply,SBD,M
Boys,124.74,14,Caleb Rivas,Pasadena Rayburn,109.95,145.15,88.45,158.76,392.36,Single-ply,SBD,M
Boys,109.77,15,Oris Granger,Beaumont Ozen,107.05,113.4,88.45,145.15,347,Single-ply,SBD,M
Boys,109.77,DQ,Deshondric Selmon,Beaumont Ozen,100.43,77.11,,,,Single-ply,SBD,M
Boys,109.77,DQ,Chris Dowdy,Dickinson,105.41,226.8,120.2,,,Single-ply,SBD,M
Boys,124.74,DQ,Matt Moore,Pasadena Memorial,110,240.4,124.74,,,Single-ply,SBD,M
Boys,124.74,1,Matt Oubre,Dayton,123.01,272.16,188.24,249.48,709.87,Single-ply,SBD,M
Boys,124.74,2,Grant Narcisse,Crosby,119.29,272.16,154.22,215.46,641.83,Single-ply,SBD,M
Boys,124.74,3,Joshua McKinnies,Katy Mayde Creek,123.38,260.82,151.95,226.8,639.57,Single-ply,SBD,M
Boys,124.74,4,Blake Teasdale,Montgomery,119.48,238.14,154.22,226.8,619.15,Single-ply,SBD,M
Boys,124.74,5,Ismail Hassan,Katy Mayde Creek,115.67,240.4,158.76,204.12,603.28,Single-ply,SBD,M
Boys,124.74,6,Joshua Opiela,Crosby,120.75,238.14,142.88,204.12,585.13,Single-ply,SBD,M
Boys,124.74,7,Jamal Kinnard,Houston Cypress Woods,110.68,226.8,120.2,229.06,576.06,Single-ply,SBD,M
Boys,124.74,8,Anietie Etuk,Dickinson,122.56,217.72,124.74,204.12,546.58,Single-ply,SBD,M
Boys,124.74,9,Cody Carter,Dayton,117.03,215.46,106.59,217.72,539.77,Single-ply,SBD,M
Boys,124.74,10,Ernesto Reales,Dickinson,122.92,210.92,122.47,181.44,514.83,Single-ply,SBD,M
Boys,124.74,11,Chance Cummings #3,Dickinson,121.93,190.51,108.86,213.19,512.56,Single-ply,SBD,M
Boys,124.74,12,Dishawn Kesee,Brookshire Royal,116.12,181.44,113.4,147.42,442.25,Single-ply,SBD,M
Boys,124.74,13,William McElvogue,Tomball,117.66,158.76,99.79,170.1,428.64,Single-ply,SBD,M
Boys,124.74,DQ,Riley Quigley,Tomball,116.94,208.65,,,,Single-ply,SBD,M
Boys,124.74+,1,Darin Slater,Dickinson,150.86,249.48,136.08,204.12,589.67,Single-ply,SBD,M
Boys,124.74+,2,Alonzo Crittendon,Dickinson,137.98,283.5,108.86,183.7,576.06,Single-ply,SBD,M
Boys,124.74+,3,Chance Harmanson,Dickinson,130.36,235.87,124.74,210.92,571.53,Single-ply,SBD,M
Boys,124.74+,4,Aaron Evans,Pasadena Memorial,126.19,208.65,113.4,235.87,557.92,Single-ply,SBD,M
Boys,124.74+,5,Stephen Juarez,Dayton,128.19,210.92,151.95,192.78,555.65,Single-ply,SBD,M
Boys,124.74+,6,Gip Sills,Pasadena Rayburn,139.25,231.33,115.67,188.24,535.24,Single-ply,SBD,M
Boys,124.74+,7,Jesus Salazar,Pasadena Rayburn,136.89,192.78,158.76,179.17,530.7,Single-ply,SBD,M
Boys,124.74+,8,Aaron Davis,Crosby,134.81,206.38,111.13,170.1,487.61,Single-ply,SBD,M
Boys,124.74+,9,Antonio Cavazos,Pasadena Memorial,134.54,172.37,106.59,183.7,462.66,Single-ply,SBD,M
Boys,124.74+,10,Stephan Stewart,Montgomery,142.43,151.95,108.86,142.88,403.7,Single-ply,SBD,M
Boys,124.74+,DQ,Alex Cruz,Pasadena Memorial,130.91,210.92,138.35,,,Single-ply,SBD,M
