Division,WeightClassKg,Place,Name,Team,BodyweightKg,Best3SquatKg,Best3BenchKg,Best3DeadliftKg,TotalKg,Equipment,Event,Sex,BirthDate
Boys,51.71,1,Dustin Bland,Orange Little Cypress-Mauriceville,51.44,95.25,92.99,149.69,337.93,Single-ply,SBD,M,
Boys,55.79,1,Braxton Rambo,Orange Little Cypress-Mauriceville,53.52,79.38,52.16,86.18,217.72,Single-ply,SBD,M,
Boys,55.79,2,Landon Thompson,Orange Little Cypress-Mauriceville,55.79,65.77,47.63,58.97,172.37,Single-ply,SBD,M,
Boys,55.79,DQ,Kenson Dubois,Orangefield,54.43,102.06,,,,Single-ply,SBD,M,
Boys,59.87,1,Chapa Joseph,West Orange-Stark,59.87,156.49,95.25,167.83,419.57,Single-ply,SBD,M,
Boys,59.87,2,David Daleo,Orange Little Cypress-Mauriceville,59.87,147.42,65.77,161.03,374.21,Single-ply,SBD,M,
Boys,59.87,3,Mark Vickery,Silsbee,58.97,127.01,90.72,145.15,362.87,Single-ply,SBD,M,
Boys,59.87,4,Seth Williamson,Orangefield,58.97,136.08,65.77,142.88,344.73,Single-ply,SBD,M,
Boys,59.87,5,Landen Talley,Silsbee,58.97,127.01,70.31,124.74,322.05,Single-ply,SBD,M,
Boys,67.13,1,Kevin Luong,Orangefield,60.33,167.83,83.91,181.44,433.18,Single-ply,SBD,M,
Boys,67.13,2,Colt Longren,Orangefield,66.68,138.35,79.38,151.95,369.68,Single-ply,SBD,M,
Boys,67.13,3,Blaine Leonard,Orangefield,64.41,149.69,74.84,142.88,367.41,Single-ply,SBD,M,
Boys,67.13,4,Layne Reed,Silsbee,65.77,113.4,86.18,142.88,342.46,Single-ply,SBD,M,
Boys,67.13,5,Daegan Vaughn,Orangefield,66.68,113.4,79.38,102.06,294.84,Single-ply,SBD,M,
Boys,67.13,6,Major Copeland,Orangefield,63.96,92.99,68.04,117.93,278.96,Single-ply,SBD,M,
Boys,74.84,1,Gunner Grimes,Orangefield,73.94,183.7,113.4,238.14,535.24,Single-ply,SBD,M,
Boys,74.84,2,Kaden Baugh,Orange Little Cypress-Mauriceville,74.3,224.53,102.06,201.85,528.44,Single-ply,SBD,M,
Boys,74.84,3,Nicholas Sparks,Orangefield,74.39,165.56,102.06,174.63,442.25,Single-ply,SBD,M,
Boys,74.84,4,Pablo Lorenzi,Silsbee,74.84,149.69,113.4,170.1,433.18,Single-ply,SBD,M,
Boys,74.84,5,Demarcus Warren,West Orange-Stark,74.84,156.49,97.52,165.56,419.57,Single-ply,SBD,M,
Boys,74.84,6,Trevor Williams,Silsbee,71.21,142.88,81.65,163.29,387.82,Single-ply,SBD,M,
Boys,74.84,DQ,Ruben Ceaser,West Orange-Stark,74.84,138.35,,151.95,,Single-ply,SBD,M,
Boys,74.84,DQ,Dustin Helms,West Orange-Stark,74.84,,,,,Single-ply,SBD,M,
Boys,74.84,DQ,Isaiah Thomas,West Orange-Stark,74.84,,,,,Single-ply,SBD,M,
Boys,74.84,DQ,Jaden Johnson,Silsbee,72.12,,,,,Single-ply,SBD,M,
Boys,82.1,1,Beau Elkins,Orangefield,79.38,208.65,117.93,172.37,498.95,Single-ply,SBD,M,
Boys,82.1,2,Jacob Unangst,Orangefield,81.19,172.37,99.79,215.46,487.61,Single-ply,SBD,M,
Boys,82.1,3,Cameron Scales,Orangefield,80.74,145.15,88.45,174.63,408.23,Single-ply,SBD,M,
Boys,82.1,4,Eddie Winters,Orange Little Cypress-Mauriceville,81.65,124.74,90.72,156.49,371.95,Single-ply,SBD,M,
Boys,89.81,1,Akilles Garcia,Orangefield,88,247.21,151.95,233.6,632.76,Single-ply,SBD,M,
Boys,89.81,2,Jayden Smart,Silsbee,83.91,183.7,108.86,188.24,480.81,Single-ply,SBD,M,
Boys,89.81,3,Josh Miller,West Orange-Stark,89.81,170.1,122.47,167.83,460.4,Single-ply,SBD,M,
Boys,89.81,4,Ethan Blackburn,Orangefield,86.18,154.22,117.93,183.7,455.86,Single-ply,SBD,M,
Boys,89.81,5,Andrew Leblanc,Silsbee,89.81,156.49,92.99,142.88,392.36,Single-ply,SBD,M,
Boys,89.81,6,Jonathan Lingo,Orange Little Cypress-Mauriceville,83.91,81.65,56.7,113.4,251.74,Single-ply,SBD,M,
Boys,89.81,DQ,Justice Trahan,Orange Little Cypress-Mauriceville,84.82,,,,,Single-ply,SBD,M,
Boys,99.79,1,Antonio Bolton,Silsbee,97.07,215.46,140.61,217.72,573.79,Single-ply,SBD,M,
Boys,99.79,2,Jan Nazario,Orange Little Cypress-Mauriceville,97.07,192.78,111.13,201.85,505.76,Single-ply,SBD,M,
Boys,99.79,3,Ashton Childress,West Orange-Stark,99.79,161.03,120.2,183.7,464.93,Single-ply,SBD,M,
Boys,99.79,4,Jeyovannie Golden,Silsbee,96.62,163.29,102.06,174.63,439.98,Single-ply,SBD,M,
Boys,99.79,5,Ransom Gibson,Orangefield,99.34,158.76,113.4,167.83,439.98,Single-ply,SBD,M,
Boys,99.79,6,Kade Bryant,Orangefield,99.79,149.69,108.86,156.49,415.04,Single-ply,SBD,M,
Boys,99.79,7,Nathan Childress,Orange Little Cypress-Mauriceville,99.16,124.74,81.65,127.01,333.39,Single-ply,SBD,M,
Boys,99.79,8,Daniel Wilbur,Orangefield,92.08,108.86,61.23,111.13,281.23,Single-ply,SBD,M,
Boys,99.79,DQ,Cutler Hubbard,Orangefield,97.98,,,,,Single-ply,SBD,M,
Boys,109.77,1,Ethan Meads,Orangefield,107.95,226.8,151.95,204.12,582.87,Single-ply,SBD,M,
Boys,109.77,2,Amier Washington,Orange Little Cypress-Mauriceville,109.77,204.12,133.81,197.31,535.24,Single-ply,SBD,M,
Boys,109.77,3,Andrew Wilson,West Orange-Stark,109.77,201.85,120.2,192.78,514.83,Single-ply,SBD,M,
Boys,109.77,4,Judah Huerta,West Orange-Stark,109.77,165.56,113.4,183.7,462.66,Single-ply,SBD,M,
Boys,109.77,5,Jeterious Brown,West Orange-Stark,104.33,156.49,120.2,170.1,446.79,Single-ply,SBD,M,
Boys,109.77,6,Owen Dolbear,Orange Little Cypress-Mauriceville,100.24,161.03,88.45,165.56,415.04,Single-ply,SBD,M,
Boys,109.77,7,Devin Dunmon,Orange Little Cypress-Mauriceville,101.6,142.88,83.91,142.88,369.68,Single-ply,SBD,M,
Boys,124.74,1,Coby Coulter,Orangefield,123.38,281.23,190.51,226.8,698.53,Single-ply,SBD,M,
Boys,124.74,2,Dylan Whitman,Orangefield,110.22,217.72,113.4,217.72,548.85,Single-ply,SBD,M,
Boys,124.74,3,Carson Phelps,Orange Little Cypress-Mauriceville,121.56,183.7,124.74,188.24,496.68,Single-ply,SBD,M,
Boys,124.74,4,JaKalen Jenkins,West Orange-Stark,124.74,151.95,111.13,161.03,424.11,Single-ply,SBD,M,
Boys,124.74,5,Brenner Portie,Orange Little Cypress-Mauriceville,123.83,142.88,92.99,156.49,392.36,Single-ply,SBD,M,
Boys,124.74,DQ,Daylon Edwards,West Orange-Stark,124.74,,,,,Single-ply,SBD,M,
Boys,124.74,DQ,Elijah Miller,Silsbee,117.48,,,,,Single-ply,SBD,M,
Boys,139.71,1,Dominick Sposato,Silsbee,130.18,210.92,140.61,208.65,560.19,Single-ply,SBD,M,
Boys,139.71,2,Drayden Jagneaux,Silsbee,127.01,163.29,111.13,190.51,464.93,Single-ply,SBD,M,
Boys,139.71,DQ,Jose Molina #6,Orange Little Cypress-Mauriceville,129.27,215.46,,170.1,,Single-ply,SBD,M,
Boys,139.71+,1,Corben McKinney,Silsbee,142.88,229.06,108.86,188.24,526.17,Single-ply,SBD,M,
