Place,Name,Sex,Country,BodyweightKg,WeightClassKg,Division,Squat1Kg,Squat2Kg,Squat3Kg,Squat4Kg,Best3SquatKg,Bench1Kg,Bench2Kg,Bench3Kg,Bench4Kg,Best3BenchKg,Deadlift1Kg,Deadlift2Kg,Deadlift3Kg,Deadlift4Kg,Best3DeadliftKg,TotalKg,Event,Equipment
G,Sabrina Pauli,F,Germany,63.5,67.5,T 13-15,40,-50,50,,50,40,45,-50,,45,70,80,85,,85,180,SBD,Wraps
1,Tereza Grubrová,F,Czechia,48.4,52,T 18-19,90,-100,100,,100,40,45,-47.5,,45,95,105,110,-116,110,255,SBD,Wraps
2,Kirstyn Kurowski,F,USA,51.7,52,T 18-19,60,70,-87.5,,70,42.5,-47.5,47.5,-50,47.5,-102.5,115,-140,,115,232.5,SBD,Wraps
1,Kayla Kurowski,F,USA,55.2,56,T 18-19,60,70,-95,,70,45,-52.5,52.5,,52.5,-92.5,92.5,-102.5,,92.5,215,SBD,Wraps
1,Lenka Lorencova,F,Czechia,64.2,67.5,Juniors,70,-80,80,,80,30,35,-40,,35,80,95,-105,,95,210,SBD,Wraps
1,Mariša Golob,F,Slovenia,55.5,56,Open,140,-150,150,,150,85,90,-92.5,,90,150,160,167.5,,167.5,407.5,SBD,Wraps
1,Nicole Ketzler,F,Germany,64.1,67.5,Open,120,127.5,135,,135,70,75,-77.5,,75,110,122.5,127.5,,127.5,337.5,SBD,Wraps
2,Katharina Brening,F,Germany,66.8,67.5,Open,115,120,125,,125,70,-72.5,72.5,,72.5,130,-140,-140,,130,327.5,SBD,Wraps
3,Ewa Owsiany,F,Poland,66.5,67.5,Open,107.5,115,120,,120,72.5,77.5,-82.5,,77.5,115,122.5,-130,,122.5,320,SBD,Wraps
1,Denise Herber,F,Germany,72.8,75,Open,165,175,180,185,180,90,95,-100,,95,175,182.5,185.5,,185.5,460.5,SBD,Wraps
2,Marlies Götze,F,Germany,74,75,Open,160,167.5,175,,175,80,85,87.5,,87.5,165,172.5,-180,,172.5,435,SBD,Wraps
3,Viktoria Reeb,F,Germany,69.3,75,Open,-140,140,150,,150,70,80,-85,,80,-160,170,-180,-186,170,400,SBD,Wraps
4,Anja Günther,F,Germany,69.5,75,Open,-90,-90,90,,90,60,65,-70,,65,110,-115,-115,,110,265,SBD,Wraps
1,Charlene Holland,F,Germany,82.6,90,Open,125,135,-140,,135,70,76,80,-82.5,80,140,150,155,,155,370,SBD,Wraps
1,Georg Winter,M,Germany,106.9,110,Open,140,150,-155,,150,70,80,-90,,80,130,140,-150,,140,370,SBD,Wraps
1,Michaela Sideratos,F,Germany,58,60,Submasters,-80,80,90,,90,45,50,-52.5,,50,100,110,120,,120,260,SBD,Wraps
1,Mónika Bazsó,F,Hungary,65.1,67.5,M 40-44,-122.5,132.5,-138,,132.5,70,77.5,-82.5,,77.5,135,145,150,-152,150,360,SBD,Wraps
1,Katalin Schindlerné Kis,F,Hungary,66.2,67.5,M 45-49,135,145,147.5,,147.5,85,95,-97.5,,95,140,150,158,,158,400,SBD,Wraps
2,Marcela Zazvonilová,F,Czechia,64,67.5,M 45-49,125,-135,-140,,125,55,65,70,,70,150,160,-167.5,,160,355,SBD,Wraps
1,Eleonóra Szombatová,F,Slovakia,56,56,M 50-54,55,60,65,,65,30,35,-37.5,,35,80,85,90,,90,190,SBD,Wraps
1,Heidrun Woltjen,F,Germany,57.8,60,M 50-54,92.5,97.5,102.5,-107.5,102.5,45,47.5,50,,50,100,107.5,112.5,115,112.5,265,SBD,Wraps
1,Michaela Pennekamp,F,Germany,101.5,90+,M 50-54,140,152.5,162.5,,162.5,-75,75,82.5,90,82.5,160,177.5,185,-190,185,430,SBD,Wraps
1,Květuše Baranovičová,F,Slovakia,57.3,60,M 60-64,-60,60,65,,65,30,35,-37.5,,35,85,95,100.5,,100.5,200.5,SBD,Wraps
G,Eric Kruse,M,Germany,98.3,100,T 13-15,-190,202.5,210,,210,100,107.5,-115,,107.5,205,215,-225,,215,532.5,SBD,Wraps
G,Jakub Świerzko,M,Poland,94.7,100,T 13-15,125,-135,140,,140,95,102.5,-105,,102.5,150,-160,-160,,150,392.5,SBD,Wraps
1,Tom Huschenbett,M,Germany,46.6,56,T 16-17,120.5,130,-140,140,130,70,80,-82.5,,80,60,70,75,,75,285,SBD,Wraps
1,Adrián Untermayer,M,Slovakia,69.2,75,T 16-17,-90,100,110,,110,80,90,-100,,90,170,180,-185,,180,380,SBD,Wraps
1,Tomáš Procházka,M,Czechia,77.3,82.5,T 16-17,-200,-200,210,,210,115,125,131,,131,-200,215,222.5,,222.5,563.5,SBD,Wraps
2,Mikulas Nowak,M,Czechia,82,82.5,T 16-17,210,225,-241,,225,100,105,-110,,105,200,210,-220,,210,540,SBD,Wraps
3,Tomasz Wittkowski,M,Poland,80.8,82.5,T 16-17,120,135,-140,,135,95,100,105,,105,150,160,170,,170,410,SBD,Wraps
1,Florian Abeltshauser,M,Germany,97.5,100,T 16-17,160,175,185,,185,100,105,-110,,105,165,180,200,,200,490,SBD,Wraps
3,Georg Winter,M,Austria,90.2,100,T 16-17,-140,150,-170,,150,80,-90,-90,,80,150,-170,-170,,150,380,SBD,Wraps
1,Marouan Benzadi,M,Germany,74.2,75,T 18-19,160,180,-195,,180,110,115,125,,125,180,200,-215.5,,200,505,SBD,Wraps
1,Antonín Tenkáč,M,Czechia,82.5,82.5,T 18-19,190,210,220,,220,100,115,-125,,115,200,220,232.5,,232.5,567.5,SBD,Wraps
2,Torge Trieglaff,M,Germany,81.5,82.5,T 18-19,170,185,-195,,185,110,117.5,-130.5,,117.5,190,205,212.5,,212.5,515,SBD,Wraps
3,Janik Piepenhagen,M,Germany,75.7,82.5,T 18-19,160,167.5,172.5,,172.5,107.5,112.5,-115,,112.5,170,180,187.5,,187.5,472.5,SBD,Wraps
4,Konrad Majocha,M,Poland,80.7,82.5,T 18-19,135,150,160,,160,110,-117.5,-117.5,,110,170,-190,-205,,170,440,SBD,Wraps
1,Kevin Hesse,M,Germany,89.5,90,T 18-19,-240,240,252.5,,252.5,115,125,135,,135,230,250,262.5,,262.5,650,SBD,Wraps
1,Samuel Hausberger,M,Austria,110,110,T 18-19,240,260,,,260,170,180,-190,,180,260,280,-300,,280,720,SBD,Wraps
2,Vlastimil Šafařík,M,Czechia,101.1,110,T 18-19,225,-240,245,,245,145,155,160,,160,220,-235,240,,240,645,SBD,Wraps
1,Alexander Wartig,M,Germany,74.4,75,Juniors,170,-185,190,,190,125,132.5,-135,,132.5,210,220,-225,,220,542.5,SBD,Wraps
2,Andreas Buchner,M,Germany,75,75,Juniors,170,-185,-185,,170,125,-130,-130,,125,210,-220,220,,220,515,SBD,Wraps
DQ,Jiří Hansík,M,Czechia,73.9,75,Juniors,-182.5,,-182.5,,,,,,,,,,,,,,SBD,Wraps
1,Tobias Gnadl,M,Germany,81.5,82.5,Juniors,170,-185,185,,185,107.5,112.5,-117.5,,112.5,215,-237.5,-237.5,,215,512.5,SBD,Wraps
1,Marvin Engel,M,Germany,87.6,90,Juniors,220,240,-250,,240,160,172.5,-175,,172.5,280,300,-310,,300,712.5,SBD,Wraps
2,Jakub Princl,M,Czechia,87.3,90,Juniors,210,220,-225,,220,125,132.5,140,,140,240,252.5,,,252.5,612.5,SBD,Wraps
3,Marcel Kleuß,M,Germany,90,90,Juniors,165,175,-185,,175,-125,125,-130,,125,200,210,-220,,210,510,SBD,Wraps
DQ,Richard Novotný,M,Czechia,89.8,90,Juniors,-240,-240,-240,,,,,,,,,,,,,,SBD,Wraps
1,Leroy Bachmann,M,Germany,96.5,100,Juniors,130,135,140,,140,90,100,-105,,100,180,190,200,,200,440,SBD,Wraps
1,Igor Golecký,M,Slovakia,104.5,110,Juniors,240,-260.5,-260.5,,240,160,165,-170,,165,250,260,-270,,260,665,SBD,Wraps
2,Denis Hofman,M,Czechia,102.2,110,Juniors,220,-240,-250,,220,140,147.5,-152.5,,147.5,260,280.5,-290,,280.5,648,SBD,Wraps
1,Jan Schnoor,M,Germany,116.7,125,Juniors,240,260,-281,,260,157.5,167.5,175,,175,245,265,-280,,265,700,SBD,Wraps
1,Tomasz Miloch,M,Poland,75,75,Open,205,210,-215,,210,130,-140,-140,,130,220,230,-240,,230,570,SBD,Wraps
1,Simon Stopar,M,Slovenia,81.9,82.5,Open,270,280,-285,,280,135,-140,140,,140,250,265,-270,,265,685,SBD,Wraps
2,Marcin Helwig,M,Poland,82.3,82.5,Open,215,222.5,227.5,,227.5,155,160,165,,165,240,250,257.5,,257.5,650,SBD,Wraps
3,Matthias Schröter,M,Germany,81.2,82.5,Open,-160,165,180,,180,125,-130,-130,,125,220,230,240,,240,545,SBD,Wraps
4,Nikolay Klass,M,Germany,78.5,82.5,Open,170,182.5,-190,,182.5,135,-142.5,-142.5,,135,195,-205,-217.5,,195,512.5,SBD,Wraps
1,Dominic Walter,M,Germany,88.6,90,Open,-210,-210,210,,210,120,130,140,,140,210,220,225,,225,575,SBD,Wraps
2,Christian Fischl,M,Germany,88.2,90,Open,200,-210,210,,210,120,130,-135,,130,-210,210,215,,215,555,SBD,Wraps
3,Viliam Buzinkay,M,Czechia,89.2,90,Open,-200,-200,200,,200,130,140,-150,,140,190,205,-212.5,,205,545,SBD,Wraps
4,Jiří Pěnička,M,Czechia,88.1,90,Open,175,185,-200,,185,100,-115,-115,,100,180,-200,200,,200,485,SBD,Wraps
1,Sebastian Pawlik,M,Poland,99.8,100,Open,280,-290,-290,,280,180,190,-200,,190,250,270,-290,,270,740,SBD,Wraps
2,Daniel Schimmel,M,Germany,96.6,100,Open,-235,235,,,235,160,170,-180,,170,200,220,235,,235,640,SBD,Wraps
3,Steffen Kolb,M,Germany,99.8,100,Open,235,-250,-250,,235,140,150,-160,,150,230,242.5,-257.5,,242.5,627.5,SBD,Wraps
1,Nico Viduka,M,Germany,108.9,110,Open,280,300,310,320.5,310,190,195,-200,,195,275,285,295,,295,800,SBD,Wraps
2,Josef Peška,M,Czechia,107.3,110,Open,270,290,-300,,290,190,200,-205,,200,200,230,240,,240,730,SBD,Wraps
3,Anton Scherz,M,Germany,107.5,110,Open,235,250,260,,260,152.5,160,-165,,160,280,290,-312.5,,290,710,SBD,Wraps
4,Jan Fleckenstein,M,Germany,105.6,110,Open,230,245,-260,,245,180,187.5,-192.5,,187.5,245,257.5,267.5,,267.5,700,SBD,Wraps
1,Vladimír Jeřábek,M,Czechia,117.3,125,Open,280,300,312.5,,312.5,195,202.5,207.5,,207.5,310,330,-340.5,,330,850,SBD,Wraps
2,Grzegorz Wałga,M,Poland,112.3,125,Open,280,300,-310,,300,220,230,-235,,230,270,285,-300,,285,815,SBD,Wraps
3,Rafał Wójcik,M,Poland,114.3,125,Open,240,260,270,,270,170,180,-185,,180,290,305,320,,320,770,SBD,Wraps
4,Aljoscha Lehmbrock,M,Germany,121.4,125,Open,-260,260,-275,,260,-165,175,-190,,175,250,282.5,-300,,282.5,717.5,SBD,Wraps
5,Andreas Wingendorff,M,Germany,110.7,125,Open,240,255,260,,260,150,-155,155,,155,280,-300,,,280,695,SBD,Wraps
6,Phillip Lang,M,Austria,114.3,125,Open,200,220,240,,240,-160,160,170,,170,270,-290,-290,,270,680,SBD,Wraps
7,Michael Becherer,M,Germany,120.1,125,Open,210,230,-250,,230,135,145,-155,,145,210,225,-240,,225,600,SBD,Wraps
1,Roland Hegedüs,M,Slovakia,131.8,140,Open,270,290,-312.5,,290,190,200,205,,205,290,300,-305,,300,795,SBD,Wraps
2,Tomáš Semančík,M,Czechia,135.1,140,Open,260,-280,280,,280,200,207.5,217.5,,217.5,280,295,-302.5,,295,792.5,SBD,Wraps
3,René Fiedler,M,Germany,132,140,Open,230,240,,,240,180,190,-200,,190,230,240,-250,,240,670,SBD,Wraps
1,Michal Buranský,M,Slovakia,67.5,67.5,Submasters,130,140,-150,,140,100,105,-110,,105,180,200,-205,,200,445,SBD,Wraps
1,Stefan Gneist,M,Germany,86.1,90,Submasters,165,170,-180,,170,140,145,-150,,145,170,180,-190,,180,495,SBD,Wraps
1,Martin Horák,M,Czechia,97,100,Submasters,200,215,222.5,,222.5,145,160,-165,,160,210,-225,225,,225,607.5,SBD,Wraps
2,Grzegorz Drewniany,M,Poland,96.9,100,Submasters,140,160,-180,,160,150,160,-165,-165,160,160,,,,160,480,SBD,Wraps
1,Mario Stöger,M,Germany,109.7,110,Submasters,280,,,,280,175,185,190,,190,260,270,280,,280,750,SBD,Wraps
2,Lars Stöwesandt,M,Germany,102.5,110,Submasters,210,222.5,237.5,,237.5,190,-200,-200,,190,275,285,292.5,,292.5,720,SBD,Wraps
3,Lajos Bán,M,Hungary,104,110,Submasters,225,-235,235,,235,150,-155,-155,,150,235,-250,-250,,235,620,SBD,Wraps
1,Matthias Große,M,Germany,116,125,Submasters,240,260,-270,,260,165,175,-180,,175,260,280,-290,-290,280,715,SBD,Wraps
1,Patrick Ohleff,M,Germany,135,140,Submasters,270,285,-300,,285,180,190,-200,,190,270,285,292.5,-300,292.5,767.5,SBD,Wraps
1,Erni Gregorčič,M,Slovenia,74.6,75,M 40-44,180,-200,205,,205,130,140,145,,145,210,230,242.5,,242.5,592.5,SBD,Wraps
2,Thomas Fischer,M,Germany,73.4,75,M 40-44,110,120,-130,,120,90,95,,,95,140,145,-155,,145,360,SBD,Wraps
1,Dan Dumitrache,M,Thailand,82.5,82.5,M 40-44,270,280,282.5,,282.5,180,190,195,,195,220,-230,-243,,220,697.5,SBD,Wraps
2,Sebastian Beck,M,Germany,82,82.5,M 40-44,180,190,200,,200,110,120,-130,,120,210,,,,210,530,SBD,Wraps
1,Mihály Bakó,M,Hungary,85.9,90,M 40-44,-190,190,-205,,190,125,140,,,140,200,225,,,225,555,SBD,Wraps
1,Michael Hofbauer,M,Austria,99.9,100,M 40-44,150,-170,,,150,85,92.5,-95,,92.5,170,190,-200,,190,432.5,SBD,Wraps
1,Danny Schmalz,M,Germany,123,125,M 40-44,282.5,300,310,,310,172.5,180,-190.5,,180,250,,,,250,740,SBD,Wraps
1,Oliver Dorsch,M,Germany,134.6,140,M 40-44,260,270,280,,280,-170,170,-177.5,,170,200,,,,200,650,SBD,Wraps
1,Steffen Giesecke,M,Germany,64.9,67.5,M 45-49,130,-140,140,,140,90,100,105,,105,170,180,190,,190,435,SBD,Wraps
1,László Kiss,M,Hungary,99.3,100,M 45-49,240,260,-270,,260,140,150,160,,160,240,,,,240,660,SBD,Wraps
2,Steffen Reisbach,M,Germany,92.1,100,M 45-49,175,-190,,,175,130,135,140,,140,190,205,210,,210,525,SBD,Wraps
1,Tibor Pukáč,M,Slovakia,103.8,110,M 45-49,240,247.5,255,,255,155,160,165,,165,235,242.5,-245,,242.5,662.5,SBD,Wraps
2,Andreas Schmidt,M,Germany,100.4,110,M 45-49,-200,210,220,,220,-140,150,160,,160,240,250,260,,260,640,SBD,Wraps
3,Michal Šafařík,M,Czechia,108.7,110,M 45-49,225,-250,-260,,225,140,145,-150,,145,220,240,,,240,610,SBD,Wraps
1,Ali Zada Kamran,M,Azerbaijan,98.6,100,M 50-54,140,155,,,155,130,-137.5,,,130,-180,180,200,,200,485,SBD,Wraps
1,Bernd Backhaus,M,Germany,106.4,110,M 50-54,-260,260,-275,,260,155,-163,-163,,155,230,250,270,,270,685,SBD,Wraps
1,Kurt Rooch,M,Germany,65.6,67.5,M 55-59,136,145,155,,155,95,105,112.5,115,112.5,140,160,178,182.5,178,445.5,SBD,Wraps
1,Gottfried Foltas,M,Germany,72.7,75,M 55-59,115,125,-140,,125,90,-95,95,,95,125,155,171,-190,171,391,SBD,Wraps
1,Sergio Bianchi,M,Italy,88.1,90,M 55-59,160,180,-201,,180,80,90,97.5,,97.5,180,,,,180,457.5,SBD,Wraps
1,Wiesław Wrŏbel,M,Poland,98.2,100,M 55-59,200,-220,225,,225,130,135,-140,,135,230,240,250,,250,610,SBD,Wraps
2,Lothar Pritzl,M,Germany,94.5,100,M 55-59,-180,200,,,200,110,120,125,,125,160,180,-200,,180,505,SBD,Wraps
1,Ralf Döhne,M,Germany,107,110,M 55-59,230,250.5,265,,265,160,170.5,-175,,170.5,-220,220,250,260,250,685.5,SBD,Wraps
2,Janusz Witkowski,M,Poland,109.4,110,M 55-59,170,180,-187.5,,180,140,145,-147.5,,145,190,205,217.5,,217.5,542.5,SBD,Wraps
1,Friedhelm Mandel,M,Germany,113.6,125,M 55-59,160,182.5,-192.5,,182.5,125,136,-140,,136,175,192.5,202.5,,202.5,521,SBD,Wraps
1,Calin Eschenasy,M,Germany,73.7,75,M 60-64,-155,155,-170,,155,95,100.5,-102.5,,100.5,172.5,200,,,200,455.5,SBD,Wraps
1,Wojtek Kaminski,M,Germany,87.2,90,M 60-64,90,105,115,,115,100,110,,,110,150,165,180,,180,405,SBD,Wraps
1,József Sztanke,M,Hungary,94.8,100,M 60-64,220,-240.5,240.5,,240.5,155,170.5,172.5,,172.5,-230,230,235.5,240,235.5,648.5,SBD,Wraps
1,Józef Sokołowski,M,Poland,104.1,110,M 60-64,240,-260,260,,260,120,130,-135,,130,240,270,-295,,270,660,SBD,Wraps
1,Klaus-Robert Franck,M,Germany,112.8,125,M 60-64,-185,-185,185,-190,185,155,-160,165,170.5,165,-180,180,-200,,180,530,SBD,Wraps
1,Stefan Sochaňski,M,Poland,89.1,90,M 65-69,-175,-175,175,,175,-92.5,92.5,,,92.5,195,217.5,,,217.5,485,SBD,Wraps
2,Hartmut Wiechert,M,Germany,89.6,90,M 65-69,90,-100,-100,,90,-85,85,-87.5,,85,130,145,-157.5,,145,320,SBD,Wraps
1,Herbert Kalischke,M,Germany,97.6,100,M 65-69,160,170,-175,,170,100,-107.5,-107.5,,100,160,-170,170,,170,440,SBD,Wraps
1,Reinhold Sack,M,Germany,79,82.5,M 70-74,140,145,147.5,,147.5,120,-125,-125,,120,160,165,170,,170,437.5,SBD,Wraps
1,Ulrich Mielich,M,Germany,74.6,75,M 75-79,65,72.5,77.5,,77.5,52.5,-57.5,57.5,,57.5,95,105,115,,115,250,SBD,Wraps
1,Csaba Keszthelyi,M,Hungary,78.6,82.5,M 80+,90,102.5,110,,110,72.5,-77.5,77.5,,77.5,130,137.5,,,137.5,325,SBD,Wraps
1,Anita Ondrousková,F,Czechia,70.2,75,Juniors,,,,,,-105,105,-120,,105,,,,,,105,B,Multi-ply
1,Júlia Kostúrová,F,Slovakia,70.8,75,Open,,,,,,171,180,-185,,180,,,,,,180,B,Multi-ply
1,Erika Lessmann,F,Germany,59.5,60,Submasters,,,,,,60,62.5,-65,,62.5,,,,,,62.5,B,Multi-ply
1,Manuela Richter,F,Germany,106.6,90+,Submasters,,,,,,85,-90,-90,,85,,,,,,85,B,Multi-ply
1,Dagmar Liptáková,F,Slovakia,61.9,67.5,M 40-44,,,,,,130,-135,-135,,130,,,,,,130,B,Multi-ply
1,Viola Kongehl,F,Germany,73.1,75,M 45-49,,,,,,85,90,95,,95,,,,,,95,B,Multi-ply
1,Doris Schäfer,F,Germany,75.5,82.5,M 50-54,,,,,,50,-55,-55,,50,,,,,,50,B,Multi-ply
1,Gisela Witte,F,Germany,77.8,82.5,M 55-59,,,,,,55,60,65,,65,,,,,,65,B,Multi-ply
1,Inge Kaule,F,Germany,49.6,52,M 60-64,,,,,,52.5,55,57.5,58,57.5,,,,,,57.5,B,Multi-ply
1,Ingrid Cedel,F,Germany,64.7,67.5,M 65-69,,,,,,47.5,50,,,50,,,,,,50,B,Multi-ply
1,Miroslav Adamove,M,Slovakia,93,100,T 18-19,,,,,,-260,260,-292.5,,260,,,,,,260,B,Multi-ply
1,Róbert Zsila,M,Hungary,71.6,75,Juniors,,,,,,140,155,-165,,155,,,,,,155,B,Multi-ply
1,Kamil Lipiňski,M,Poland,90,90,Juniors,,,,,,170,-180,-180,,170,,,,,,170,B,Multi-ply
DQ,Domenik Bentrop,M,Germany,91.3,100,Juniors,,,,,,-142.5,-142.5,-142.5,,,,,,,,,B,Multi-ply
1,Richárd Buda,M,Hungary,121.7,125,Juniors,,,,,,-360,360,-380,-380,360,,,,,,360,B,Multi-ply
1,Gordon Schramke,M,Germany,76.3,82.5,M 40-44,,,,,,150,155,157.5,,157.5,,,,,,157.5,B,Multi-ply
2,Janoš Ungai,M,Hungary,82,82.5,M 40-44,,,,,,130,152.5,-157.5,,152.5,,,,,,152.5,B,Multi-ply
1,Daniel Kaufmann,M,Germany,88.9,90,M 40-44,,,,,,195,-220,-225,,195,,,,,,195,B,Multi-ply
2,Mario Auer,M,Austria,83.8,90,M 40-44,,,,,,150,170,175,,175,,,,,,175,B,Multi-ply
3,Igors Marudins,M,Latvia,87.4,90,M 40-44,,,,,,175,-180,-180,,175,,,,,,175,B,Multi-ply
1,Mihails Rekaikins,M,Latvia,95.3,100,M 40-44,,,,,,200,-210,-210,,200,,,,,,200,B,Multi-ply
1,Sebastian Balner,M,Poland,107.2,110,M 40-44,,,,,,210,-220,220,,220,,,,,,220,B,Multi-ply
2,Ernő Eck,M,Hungary,101.1,110,M 40-44,,,,,,180,-187.5,-187.5,,180,,,,,,180,B,Multi-ply
3,Petr Poláček,M,Czechia,109.6,110,M 40-44,,,,,,180,-200,-200,,180,,,,,,180,B,Multi-ply
DQ,Reikö Kruse,M,Germany,123.1,125,M 40-44,,,,,,-260,,,,,,,,,,,B,Multi-ply
1,Kai-Uwe Göllnitz,M,Germany,126.4,140,M 40-44,,,,,,-275,-275,275,,275,,,,,,275,B,Multi-ply
2,Stephen Parkhurst,M,USA,134.4,140,M 40-44,,,,,,220,-235,-235,,220,,,,,,220,B,Multi-ply
1,Heiko Mehnert,M,Germany,94.8,100,M 45-49,,,,,,170,177.5,-185,,177.5,,,,,,177.5,B,Multi-ply
2,Steffen Reisbach,M,Germany,92.6,100,M 45-49,,,,,,170,-177.5,-177.5,,170,,,,,,170,B,Multi-ply
1,László Haraszti,M,Hungary,109.2,110,M 45-49,,,,,,200,-210,-210,,200,,,,,,200,B,Multi-ply
1,Ferenc Balázs,M,Hungary,111.5,125,M 45-49,,,,,,-280,280,292.5,,292.5,,,,,,292.5,B,Multi-ply
2,Kai-Uwe Werner,M,Germany,117.4,125,M 45-49,,,,,,-265,-265,265,,265,,,,,,265,B,Multi-ply
DQ,Hans Schuh,M,Germany,140.1,140+,M 45-49,,,,,,-240,-240,-240,,,,,,,,,B,Multi-ply
1,Helmut Sontheimer,M,Germany,86.6,90,M 50-54,,,,,,160,167.5,175,,175,,,,,,175,B,Multi-ply
DQ,Helmut Silberbauer,M,Austria,94.1,100,M 50-54,,,,,,-170,-170,-185,,,,,,,,,B,Multi-ply
1,Michael Schäfer,M,Germany,109.6,110,M 50-54,,,,,,155,160,165,,165,,,,,,165,B,Multi-ply
1,Viktor Kudi,M,Czechia,111.2,125,M 50-54,,,,,,260,-270,270,,270,,,,,,270,B,Multi-ply
2,Peter Ihlenfeld,M,Germany,118.9,125,M 50-54,,,,,,-217.5,217.5,-220,,217.5,,,,,,217.5,B,Multi-ply
1,Tim Moon,M,USA,126.7,140,M 50-54,,,,,,-335,-335,335,,335,,,,,,335,B,Multi-ply
2,Pál Kovács,M,Hungary,126.4,140,M 50-54,,,,,,160,170,-180,,170,,,,,,170,B,Multi-ply
DQ,Boris Švirec,M,Slovakia,125.8,140,M 50-54,,,,,,-215,-215,-215,,,,,,,,,B,Multi-ply
1,Kurt Rooch,M,Germany,65.7,67.5,M 55-59,,,,,,110,120,130,,130,,,,,,130,B,Multi-ply
1,Uwe Schwaier,M,Germany,82.2,82.5,M 55-59,,,,,,125,-132.5,,,125,,,,,,125,B,Multi-ply
1,Falk Steinkopf,M,Germany,95.4,100,M 55-59,,,,,,130,140,-145,,140,,,,,,140,B,Multi-ply
2,Jiří Barnet,M,Czechia,100,100,M 55-59,,,,,,-135,135,140,,140,,,,,,140,B,Multi-ply
1,Jan Gołąbek,M,Poland,107.3,110,M 55-59,,,,,,145,155,-175,,155,,,,,,155,B,Multi-ply
1,Krystian Slosarek,M,Germany,117.4,125,M 55-59,,,,,,200,-215,-215,,200,,,,,,200,B,Multi-ply
1,Frank Hurraß,M,Germany,125.2,140,M 55-59,,,,,,180,192.5,-200,,192.5,,,,,,192.5,B,Multi-ply
1,Hans-Jürgen Kaule,M,Germany,74.1,75,M 60-64,,,,,,-150,165,-166,,165,,,,,,165,B,Multi-ply
1,Milan Vezmar,M,Serbia,81,82.5,M 60-64,,,,,,110,120,,,120,,,,,,120,B,Multi-ply
1,Thomas Wagner,M,Germany,82.8,90,M 60-64,,,,,,112.5,-117.5,-117.5,,112.5,,,,,,112.5,B,Multi-ply
1,Franciszek Szabluk,M,Poland,98.3,100,M 60-64,,,,,,205,212.5,222.5,-240,222.5,,,,,,222.5,B,Multi-ply
2,Armin Bunzel,M,Germany,96.4,100,M 60-64,,,,,,110,,,,110,,,,,,110,B,Multi-ply
1,Ulrich Vetter,M,Germany,105.8,110,M 60-64,,,,,,180,187.5,-192.5,,187.5,,,,,,187.5,B,Multi-ply
1,Klaus Grosser,M,Germany,111.9,125,M 60-64,,,,,,-170,-170,170,,170,,,,,,170,B,Multi-ply
2,Karel Leibl,M,Czechia,113.1,125,M 60-64,,,,,,140,-150,150,,150,,,,,,150,B,Multi-ply
3,Norbert Lessmann,M,Germany,115.5,125,M 60-64,,,,,,130,-137.5,142.5,,142.5,,,,,,142.5,B,Multi-ply
1,Gerd Cedel,M,Germany,69.9,75,M 70-74,,,,,,82.5,-85,85,,85,,,,,,85,B,Multi-ply
1,Hans Klein,M,Germany,65.4,67.5,M 75-79,,,,,,105,110,112.5,,112.5,,,,,,112.5,B,Multi-ply
2,Erwin Trichlin,M,Austria,64.8,67.5,M 75-79,,,,,,100,105,-110.5,,105,,,,,,105,B,Multi-ply
1,Dieter Schweitzer,M,Germany,69.1,75,M 75-79,,,,,,50,55,-57.5,,55,,,,,,55,B,Multi-ply
1,Gerd Meyerhofer,M,Germany,76.8,82.5,M 75-79,,,,,,60,65,67.5,,67.5,,,,,,67.5,B,Multi-ply
1,Konrad Merta,M,Germany,88.2,90,M 75-79,,,,,,105,117.5,123,,123,,,,,,123,B,Multi-ply
1,Krzysztof Wolszczak,M,Poland,73.6,75,Open,,,,,,130,140,-150,,140,,,,,,140,B,Multi-ply
1,Steffen Hackbart,M,Germany,81,82.5,Open,,,,,,230,-240,,,230,,,,,,230,B,Multi-ply
2,Nikolay Klass,M,Germany,78.7,82.5,Open,,,,,,165,175,-182.5,,175,,,,,,175,B,Multi-ply
1,Sebastian Dąbrowski,M,Poland,89,90,Open,,,,,,265,275,-280,-287,275,,,,,,275,B,Multi-ply
2,Dawid Deptuch,M,Poland,89.9,90,Open,,,,,,220,235,-250,,235,,,,,,235,B,Multi-ply
3,Rafał Żarnowski,M,Poland,86.5,90,Open,,,,,,190,195,200,,200,,,,,,200,B,Multi-ply
DQ,Patryk Kozieł,M,Poland,88.7,90,Open,,,,,,-220,-230,-235,,,,,,,,,B,Multi-ply
1,Martin Kries,M,Germany,100,100,Open,,,,,,-280,280,-290,,280,,,,,,280,B,Multi-ply
2,Matthias Joecks,M,Germany,91.8,100,Open,,,,,,-250,-250,250,,250,,,,,,250,B,Multi-ply
3,Elias Dobrowolski,M,Germany,94.2,100,Open,,,,,,190,205,-215,,205,,,,,,205,B,Multi-ply
1,Krisztián Kovács,M,Hungary,108.6,110,Open,,,,,,185,-200,,,185,,,,,,185,B,Multi-ply
1,Petr Bolf,M,Czechia,121.5,125,Open,,,,,,350,-360,,,350,,,,,,350,B,Multi-ply
2,Jan Sylvester,M,Germany,124.9,125,Open,,,,,,230,240,-250,,240,,,,,,240,B,Multi-ply
3,Richard Gensch,M,Germany,113.1,125,Open,,,,,,-190,190,200,,200,,,,,,200,B,Multi-ply
1,Sandro Kreller,M,Germany,73.3,75,Submasters,,,,,,195,202.5,-205,,202.5,,,,,,202.5,B,Multi-ply
1,Norbert Deli,M,Hungary,81.1,82.5,Submasters,,,,,,190,200,210,,210,,,,,,210,B,Multi-ply
1,Robin von Zweydorff,M,Germany,88.5,90,Submasters,,,,,,240,-250,250,-266,250,,,,,,250,B,Multi-ply
1,Krzysztof Zakrzewski,M,Poland,98.3,100,Submasters,,,,,,245,255,-260,,255,,,,,,255,B,Multi-ply
1,Henning Tiedje,M,Germany,105.3,110,Submasters,,,,,,265,-272.5,-272.5,,265,,,,,,265,B,Multi-ply
DQ,Jaromír Kratochvíl,M,Czechia,103.4,110,Submasters,,,,,,-290,-290,-290,,,,,,,,,B,Multi-ply
1,Petr Hron,M,Czechia,111.2,125,Submasters,,,,,,235,250,-270,,250,,,,,,250,B,Multi-ply
1,Szilvia Bartha,F,Hungary,51.5,52,T 16-17,,,,,,58,60,62.5,-63,62.5,,,,,,62.5,B,Raw
1,Marta Zawadzka,F,Poland,64.7,67.5,Juniors,,,,,,60,65,70,,70,,,,,,70,B,Raw
1,Honorata Kaczorowska,F,Poland,63.6,67.5,Open,,,,,,105,110,115,,115,,,,,,115,B,Raw
2,Daria Krenn,F,Austria,65.5,67.5,Open,,,,,,105,110,-115,,110,,,,,,110,B,Raw
3,Miroslava Herčková,F,Slovakia,65.1,67.5,Open,,,,,,90,100,-105,,100,,,,,,100,B,Raw
1,Anna Sułkowska,F,Poland,69.5,75,Open,,,,,,80,87.5,92.5,,92.5,,,,,,92.5,B,Raw
2,Anna Paluszik,F,Poland,71.2,75,Open,,,,,,70,-75,-75,,70,,,,,,70,B,Raw
1,Zuzanna Zlebkova,F,Czechia,78,82.5,Open,,,,,,80,90,95,,95,,,,,,95,B,Raw
1,Daniela Adamkiewicz,F,Germany,55.8,56,Submasters,,,,,,62.5,65,-67.5,,65,,,,,,65,B,Raw
1,Kerstin Sacks,F,Germany,72.2,75,Submasters,,,,,,45,50,52.5,,52.5,,,,,,52.5,B,Raw
1,Adrianna Bonczak,F,Poland,62.2,67.5,M 40-44,,,,,,87.5,-90,90,,90,,,,,,90,B,Raw
1,Marzena Janzer,F,Poland,73.2,75,M 40-44,,,,,,75,80,85,,85,,,,,,85,B,Raw
1,Katalin Schindlerné Kis,F,Hungary,67,67.5,M 45-49,,,,,,85,92.5,95,-97.5,95,,,,,,95,B,Raw
1,Bettina Razzouki-Korkis,F,Poland,56.9,60,M 50-54,,,,,,60,-65,65,-70,65,,,,,,65,B,Raw
1,Doris Schäfer,F,Germany,75,75,M 50-54,,,,,,42.5,45,47,-48,47,,,,,,47,B,Raw
1,Karin Behrends,F,Germany,78.6,82.5,M 50-54,,,,,,-75,75,-77.5,,75,,,,,,75,B,Raw
1,Anne-Kathrin Miegel,F,Germany,85.6,90,M 50-54,,,,,,55,-57.5,-57.5,,55,,,,,,55,B,Raw
1,Gisela Witte,F,Germany,77.1,82.5,M 55-59,,,,,,45,55,65,,65,,,,,,65,B,Raw
1,Libuše Leiblová,F,Czechia,89.7,90,M 55-59,,,,,,120,128,-130,,128,,,,,,128,B,Raw
1,Inge Kaule,F,Germany,50.6,52,M 60-64,,,,,,50,52.5,55,,55,,,,,,55,B,Raw
1,Sigrid Sack,F,Germany,54.6,56,M 65-69,,,,,,52.5,56,-57.5,,56,,,,,,56,B,Raw
1,Ursula Eulenstein,F,Germany,81.4,82.5,M 65-69,,,,,,70,72.5,77.5,80,77.5,,,,,,77.5,B,Raw
G,Max Glok,M,Germany,81.7,82.5,T 13-15,,,,,,92.5,100,-105,,100,,,,,,100,B,Raw
1,Dawid Urbanowicz,M,Poland,65.6,67.5,T 16-17,,,,,,70,80,85,,85,,,,,,85,B,Raw
1,Cedric Zurfluh,M,Switzerland,82,82.5,T 16-17,,,,,,115,122.5,-130,,122.5,,,,,,122.5,B,Raw
1,Đorđe Pjanović,M,Serbia,85.9,90,T 16-17,,,,,,130,140,-148,,140,,,,,,140,B,Raw
1,Julian Vigh,M,Germany,69.7,75,T 18-19,,,,,,90,105,115,,115,,,,,,115,B,Raw
1,Dennis Glok,M,Germany,79.7,82.5,T 18-19,,,,,,95,102.5,105,,105,,,,,,105,B,Raw
1,Lukas Kronberger,M,Austria,89.5,90,T 18-19,,,,,,-145,150,-160,,150,,,,,,150,B,Raw
1,Pál Hinel,M,Hungary,106,110,T 18-19,,,,,,160,171,-172.5,,171,,,,,,171,B,Raw
1,Ron Krieg,M,Germany,131.6,140,T 18-19,,,,,,155,165,-170,,165,,,,,,165,B,Raw
1,Andreas Egger,M,Austria,56.8,60,Juniors,,,,,,92.5,-95,-95,,92.5,,,,,,92.5,B,Raw
1,Jan Friedrich,M,Germany,66.7,67.5,Juniors,,,,,,115,120,125,-133,125,,,,,,125,B,Raw
1,Marcin Dulko,M,Poland,73.9,75,Juniors,,,,,,160,165,-167.5,,165,,,,,,165,B,Raw
2,Michael Rimle,M,Switzerland,69.8,75,Juniors,,,,,,127.5,135,140,,140,,,,,,140,B,Raw
3,Petr Skřinář,M,Czechia,73.8,75,Juniors,,,,,,120,130,-137.5,,130,,,,,,130,B,Raw
1,Mateusz Klawitter,M,Poland,81.9,82.5,Juniors,,,,,,142.5,147.5,152.5,,152.5,,,,,,152.5,B,Raw
2,Dominik Špinka,M,Czechia,81.8,82.5,Juniors,,,,,,-135,135,140,,140,,,,,,140,B,Raw
3,Patryk Kaczmarek,M,Poland,82.1,82.5,Juniors,,,,,,120,130,-140,,130,,,,,,130,B,Raw
1,Maksymilian Blinkiewicz,M,Poland,87.2,90,Juniors,,,,,,185,-195,-195,,185,,,,,,185,B,Raw
2,Kamil Bubeníček,M,Czechia,88.2,90,Juniors,,,,,,175,-182.5,182.5,,182.5,,,,,,182.5,B,Raw
3,Valentin Rohm,M,Germany,84.4,90,Juniors,,,,,,140,145,-150,,145,,,,,,145,B,Raw
4,Pawel Szczurowski,M,Poland,90,90,Juniors,,,,,,85,90,95,,95,,,,,,95,B,Raw
1,Andras Csaba Borsa,M,Hungary,98.2,100,Juniors,,,,,,180,190,192.5,,192.5,,,,,,192.5,B,Raw
2,Artur Gogoliński,M,Poland,96.5,100,Juniors,,,,,,190,-202.5,-202.5,,190,,,,,,190,B,Raw
3,Jonathan Peters,M,Germany,93,100,Juniors,,,,,,140,-150,150,,150,,,,,,150,B,Raw
1,Stefan Manasić,M,Serbia,106.4,110,Juniors,,,,,,200,,,,200,,,,,,200,B,Raw
1,Lukáš Forejtek,M,Czechia,110.7,125,Juniors,,,,,,175,-185,-185,,175,,,,,,175,B,Raw
1,Norbert Hajas,M,Hungary,70.8,75,M 40-44,,,,,,150,160,167.5,-170,167.5,,,,,,167.5,B,Raw
1,Lajos Cseh,M,Hungary,82.3,82.5,M 40-44,,,,,,157.5,165,-170,,165,,,,,,165,B,Raw
2,Mario Auer,M,Austria,82.2,82.5,M 40-44,,,,,,150,160,-165,,160,,,,,,160,B,Raw
3,Kryzsztof Klimaszewski,M,Poland,82.5,82.5,M 40-44,,,,,,150,160,-170,,160,,,,,,160,B,Raw
1,Tom Kurowski,M,USA,89.7,90,M 40-44,,,,,,160,170,177.5,180.5,177.5,,,,,,177.5,B,Raw
2,Daniel Kaufmann,M,Germany,90,90,M 40-44,,,,,,160,167.5,-177.5,,167.5,,,,,,167.5,B,Raw
1,Oliver Beck,M,Germany,99.9,100,M 40-44,,,,,,170,177.5,185,,185,,,,,,185,B,Raw
2,Štefan Sokoly,M,Slovakia,95.6,100,M 40-44,,,,,,160,-170,,,160,,,,,,160,B,Raw
3,Karel Mikeš,M,Czechia,90.1,100,M 40-44,,,,,,150,-160,-160,,150,,,,,,150,B,Raw
1,Jacek Stańczyk,M,Poland,109,110,M 40-44,,,,,,210,225,-230,,225,,,,,,225,B,Raw
2,Tamás Pfeifenróth,M,Hungary,107.6,110,M 40-44,,,,,,180,190,200,,200,,,,,,200,B,Raw
3,Richard Eartly,M,USA,109.6,110,M 40-44,,,,,,165,175,182.5,,182.5,,,,,,182.5,B,Raw
4,Lukasz Soszynski,M,Poland,106.9,110,M 40-44,,,,,,150,160,,,160,,,,,,160,B,Raw
1,Sven Nethe,M,Germany,119,125,M 40-44,,,,,,195,202.5,-210,,202.5,,,,,,202.5,B,Raw
2,Zbigniew Drewniak,M,Poland,124.7,125,M 40-44,,,,,,177.5,182.5,190,,190,,,,,,190,B,Raw
3,Matthias Fanselow,M,Germany,122.9,125,M 40-44,,,,,,175,-180,-180,,175,,,,,,175,B,Raw
1,Kai-Uwe Göllnitz,M,Germany,127,140,M 40-44,,,,,,170,,,,170,,,,,,170,B,Raw
1,Grzegorz Kantor,M,Poland,140.6,140+,M 40-44,,,,,,170,180,-182.5,,180,,,,,,180,B,Raw
1,László Kupcsik,M,Hungary,89.7,90,M 45-49,,,,,,215,-223,-223,,215,,,,,,215,B,Raw
2,Wolfgang Fischer,M,Germany,88.8,90,M 45-49,,,,,,130,137.5,142.5,,142.5,,,,,,142.5,B,Raw
1,Hovhannes Yazichyan,M,Poland,93.9,100,M 45-49,,,,,,190,195,200,205,200,,,,,,200,B,Raw
1,Ronald Lucas,M,Germany,104.3,110,M 45-49,,,,,,210,215,220,,220,,,,,,220,B,Raw
2,Dariusz Formella,M,Poland,110,110,M 45-49,,,,,,195,207.5,-215.5,,207.5,,,,,,207.5,B,Raw
3,Mike Baldzuhn,M,Germany,107.6,110,M 45-49,,,,,,175,185,195,,195,,,,,,195,B,Raw
4,Joachim Krebs,M,Austria,103.1,110,M 45-49,,,,,,150,160,170,,170,,,,,,170,B,Raw
1,Marcin Gorzędowski,M,Poland,118.6,125,M 45-49,,,,,,202.5,220,-230,,220,,,,,,220,B,Raw
1,Mario Prünster,M,Austria,134.8,140,M 45-49,,,,,,165,170,-175,,170,,,,,,170,B,Raw
1,Milan Suk,M,Czechia,80.2,82.5,M 50-54,,,,,,150,158,-160,,158,,,,,,158,B,Raw
2,Frank Hennig,M,Germany,79.6,82.5,M 50-54,,,,,,120,-125,-130,,120,,,,,,120,B,Raw
1,Tilo Kupper,M,Switzerland,88.2,90,M 50-54,,,,,,150,155,160,,160,,,,,,160,B,Raw
2,Thorsten Ritter,M,Germany,90,90,M 50-54,,,,,,120,140,-160,,140,,,,,,140,B,Raw
1,Uwe Haase,M,Germany,99.8,100,M 50-54,,,,,,175,185,195,-200,195,,,,,,195,B,Raw
2,Zsolt Mohácsi,M,Hungary,99.6,100,M 50-54,,,,,,160,167.5,170,,170,,,,,,170,B,Raw
3,Helmut Silberbauer,M,Austria,94.2,100,M 50-54,,,,,,130,140,-150,,140,,,,,,140,B,Raw
1,Uwe Vernaldi,M,Germany,108.5,110,M 50-54,,,,,,175,-182.5,-182.5,,175,,,,,,175,B,Raw
2,Igor Kurotchenko,M,Russia,109.7,110,M 50-54,,,,,,140,147.5,152.5,,152.5,,,,,,152.5,B,Raw
1,Andreas Behrends,M,Germany,122.4,125,M 50-54,,,,,,175,180,185,,185,,,,,,185,B,Raw
2,Jiří Hájek,M,Czechia,121.7,125,M 50-54,,,,,,-170,170,-185,,170,,,,,,170,B,Raw
3,Michael Schäfer,M,Germany,111,125,M 50-54,,,,,,135,140,145,,145,,,,,,145,B,Raw
1,László Vass,M,Hungary,139.6,140,M 50-54,,,,,,180,195,200,,200,,,,,,200,B,Raw
1,Michal Ungrád,M,Czechia,143.8,140+,M 50-54,,,,,,180,190,-200,,190,,,,,,190,B,Raw
1,Kurt Rooch,M,Germany,66,67.5,M 55-59,,,,,,100,110,-117.5,,110,,,,,,110,B,Raw
1,Friedhelm Schröter,M,Germany,74.1,75,M 55-59,,,,,,120,127.5,130,-130.5,130,,,,,,130,B,Raw
2,József Németh,M,Hungary,73.5,75,M 55-59,,,,,,107.5,112.5,-117.5,,112.5,,,,,,112.5,B,Raw
3,Hakki Bozat,M,Turkey,68.7,75,M 55-59,,,,,,110,-115,-117.5,,110,,,,,,110,B,Raw
1,Uwe Herfort,M,Germany,76.1,82.5,M 55-59,,,,,,135,-140,140,142.5,140,,,,,,140,B,Raw
1,Günter Roloff,M,Germany,88.9,90,M 55-59,,,,,,120,-130,130,,130,,,,,,130,B,Raw
1,Miroslaw Bartkowski,M,Poland,98.6,100,M 55-59,,,,,,130,-140,140,,140,,,,,,140,B,Raw
2,Eduard Weber,M,Germany,96.9,100,M 55-59,,,,,,120,-125,130,,130,,,,,,130,B,Raw
1,Dieter Berghoff,M,Germany,122.4,125,M 55-59,,,,,,170,180,190,-195,190,,,,,,190,B,Raw
1,Piotr Redzik,M,Poland,128.6,140,M 55-59,,,,,,145,155,166,170,166,,,,,,166,B,Raw
2,Frank Hurraß,M,Germany,125.1,140,M 55-59,,,,,,145,155,-166.5,,155,,,,,,155,B,Raw
1,Hans-Jürgen Kaule,M,Germany,74.7,75,M 60-64,,,,,,125,130,135,137.5,135,,,,,,135,B,Raw
1,Hartmut Niemann,M,Germany,81,82.5,M 60-64,,,,,,130,137.5,140,-148,140,,,,,,140,B,Raw
2,Karel Schoř,M,Czechia,81.8,82.5,M 60-64,,,,,,122.5,132.5,140,,140,,,,,,140,B,Raw
3,Gerd Müller,M,Germany,80.4,82.5,M 60-64,,,,,,125,127.5,130,,130,,,,,,130,B,Raw
4,Milan Vezmar,M,Serbia,80.4,82.5,M 60-64,,,,,,110,-122.5,122.5,,122.5,,,,,,122.5,B,Raw
1,Frank Kutzsch,M,Germany,88.8,90,M 60-64,,,,,,145,152.5,,,152.5,,,,,,152.5,B,Raw
2,Géza Attila Bognár,M,Hungary,88.3,90,M 60-64,,,,,,-125,125,-127.5,,125,,,,,,125,B,Raw
3,Wojtek Kaminski,M,Germany,86.9,90,M 60-64,,,,,,110,120,-127.5,,120,,,,,,120,B,Raw
4,Thomas Wagner,M,Germany,84,90,M 60-64,,,,,,107.5,112.5,-115,,112.5,,,,,,112.5,B,Raw
1,Kurt Schoula,M,Germany,98.6,100,M 60-64,,,,,,160,-170.5,-170.5,,160,,,,,,160,B,Raw
2,László Jámbor,M,Hungary,97.8,100,M 60-64,,,,,,105,112.5,115,,115,,,,,,115,B,Raw
1,Péter Károly Kis,M,Hungary,109.3,110,M 60-64,,,,,,132.5,137.5,,,137.5,,,,,,137.5,B,Raw
2,Wojciech Nitecki,M,Poland,107.6,110,M 60-64,,,,,,130,135,-142.5,,135,,,,,,135,B,Raw
1,Miklos Peterdi,M,Switzerland,111.7,125,M 60-64,,,,,,175,-180,180,,180,,,,,,180,B,Raw
1,Ferenc Tóth,M,Hungary,129.2,140,M 60-64,,,,,,110,115,120,,120,,,,,,120,B,Raw
1,Andrè Kühn,M,Germany,80.4,82.5,M 65-69,,,,,,100,110,-115,,110,,,,,,110,B,Raw
DQ,Reinhold Schaumann-Kelch,M,Germany,80.8,82.5,M 65-69,,,,,,-120,-120,-120,,,,,,,,,B,Raw
1,Ladislav Špaček,M,Czechia,85.9,90,M 65-69,,,,,,75,-82.5,-82.5,,75,,,,,,75,B,Raw
1,Dragomir Dimič,M,Serbia,97.2,100,M 65-69,,,,,,125,130,135,,135,,,,,,135,B,Raw
1,Joachim Eulenstein,M,Germany,102.5,110,M 65-69,,,,,,140,142.5,145,-147.5,145,,,,,,145,B,Raw
1,György Fonyódi,M,Hungary,66.1,67.5,M 70-74,,,,,,75,-81.5,-81.5,,75,,,,,,75,B,Raw
1,Reinhold Sack,M,Germany,77.2,82.5,M 70-74,,,,,,120,125,-127.5,,125,,,,,,125,B,Raw
2,František Esser,M,Czechia,80.7,82.5,M 70-74,,,,,,105,115,122.5,,122.5,,,,,,122.5,B,Raw
3,Rolf Winterscheidt,M,Germany,77.2,82.5,M 70-74,,,,,,57.5,60,-62.5,,60,,,,,,60,B,Raw
1,Siegfried Wege,M,Germany,88.1,90,M 70-74,,,,,,110,115,-117.5,,115,,,,,,115,B,Raw
2,Béla Bolgárfalvi,M,Hungary,87.8,90,M 70-74,,,,,,105,110,-115,,110,,,,,,110,B,Raw
1,Miroslaw Orłowski,M,Poland,97.5,100,M 70-74,,,,,,130,135,137.5,-141,137.5,,,,,,137.5,B,Raw
1,Heiner Dr. Schildbach,M,Germany,100.1,110,M 70-74,,,,,,110,115,-120,,115,,,,,,115,B,Raw
1,Hans Klein,M,Germany,65,67.5,M 75-79,,,,,,95,100,-105,-105,100,,,,,,100,B,Raw
2,Erwin Trichlin,M,Austria,64.3,67.5,M 75-79,,,,,,87.5,92.5,-95,,92.5,,,,,,92.5,B,Raw
1,Bernhard Gromadecki,M,Germany,70.6,75,M 75-79,,,,,,60,62.5,,,62.5,,,,,,62.5,B,Raw
1,Gerd Meyerhofer,M,Germany,77,82.5,M 75-79,,,,,,60,65,-67.5,,65,,,,,,65,B,Raw
1,Hans-Jürgen Kuhlmey,M,Germany,124.1,125,M 75-79,,,,,,115,120,-125,,120,,,,,,120,B,Raw
1,Günther Tschierschky,M,Germany,81.4,82.5,M 80+,,,,,,50,55,-57.5,,55,,,,,,55,B,Raw
1,Damian Gordon,M,Poland,67,67.5,Open,,,,,,130,140,-147.5,,140,,,,,,140,B,Raw
2,Daniel Nowak,M,Poland,64.6,67.5,Open,,,,,,85,-90,-95,,85,,,,,,85,B,Raw
1,Konrad Adamaszek,M,Poland,74.7,75,Open,,,,,,170,175,177.5,,177.5,,,,,,177.5,B,Raw
2,Tomáš Gazdik,M,Slovakia,74.2,75,Open,,,,,,140,147.5,155,,155,,,,,,155,B,Raw
3,Csaba Vén,M,Hungary,72.9,75,Open,,,,,,150,-155,-155,,150,,,,,,150,B,Raw
4,Marcin Szreiber,M,Poland,74.2,75,Open,,,,,,137.5,-142.5,-150,,137.5,,,,,,137.5,B,Raw
1,Artur Miksa,M,Poland,82.5,82.5,Open,,,,,,200,210,-215,,210,,,,,,210,B,Raw
2,Mateusz Pawelak,M,Poland,82.3,82.5,Open,,,,,,-200,200,-210,,200,,,,,,200,B,Raw
3,Kornél Szabó,M,Hungary,81.5,82.5,Open,,,,,,170,175,-177.5,,175,,,,,,175,B,Raw
4,Steffen Hackbart,M,Germany,81.1,82.5,Open,,,,,,160,170,-175,,170,,,,,,170,B,Raw
5,Łukasz Kozłowski,M,Poland,81.7,82.5,Open,,,,,,150,-155,-155,,150,,,,,,150,B,Raw
6,Lukas Dorinský,M,Czechia,80.5,82.5,Open,,,,,,-140,-140,140,,140,,,,,,140,B,Raw
1,Patryk Kozieł,M,Poland,90,90,Open,,,,,,192.5,197.5,-205,,197.5,,,,,,197.5,B,Raw
2,Jarosław Buczko,M,Poland,88.4,90,Open,,,,,,190,197.5,-202.5,,197.5,,,,,,197.5,B,Raw
3,Adrian Kopania,M,Poland,85.6,90,Open,,,,,,177.5,-187.5,187.5,,187.5,,,,,,187.5,B,Raw
4,Roman Kočí,M,Czechia,89.6,90,Open,,,,,,160,170,-180,,170,,,,,,170,B,Raw
5,Robert Herczig,M,Hungary,83.6,90,Open,,,,,,130,140,-145,,140,,,,,,140,B,Raw
6,Wolfgang Fischer,M,Germany,87.6,90,Open,,,,,,125,135,-142.5,,135,,,,,,135,B,Raw
7,Thomas Lenke,M,Germany,90,90,Open,,,,,,135,-140,-145,,135,,,,,,135,B,Raw
1,Vlastimil Kužel,M,Czechia,109.6,110,Open,,,,,,230,240,250,-251.5,250,,,,,,250,B,Raw
2,Jens Hoffmann,M,Germany,109.7,110,Open,,,,,,210,-220,225,,225,,,,,,225,B,Raw
3,Daniel Andrýs,M,Czechia,106.7,110,Open,,,,,,210,220,-225,,220,,,,,,220,B,Raw
4,Daniel Boss,M,Switzerland,110,110,Open,,,,,,195,205,-212.5,,205,,,,,,205,B,Raw
5,Dawid Górzyński,M,Poland,108.6,110,Open,,,,,,190,-195,202.5,,202.5,,,,,,202.5,B,Raw
6,Mario Fuska,M,Slovakia,101.2,110,Open,,,,,,180,190,-200,,190,,,,,,190,B,Raw
1,Ákos Oláh,M,Hungary,98.7,100,Open,,,,,,212.5,222.5,227.5,-238,227.5,,,,,,227.5,B,Raw
2,Maciej Ondycz,M,Poland,99.1,100,Open,,,,,,215,220,-227.5,,220,,,,,,220,B,Raw
3,Paweł Tyborczyk,M,Poland,90.4,100,Open,,,,,,200,-210,-210,,200,,,,,,200,B,Raw
4,Denny Linsdorf,M,Germany,93.1,100,Open,,,,,,185,-195,-200,,185,,,,,,185,B,Raw
5,Thomas Brettschneider,M,Germany,94.9,100,Open,,,,,,-180,180,-187.5,,180,,,,,,180,B,Raw
1,Dawid Marian,M,Poland,120.3,125,Open,,,,,,230,-245.5,-245.5,,230,,,,,,230,B,Raw
DQ,Jaroslav Vdovichenko,M,Ukraine,116.1,125,Open,,,,,,-240,-250,-250,,,,,,,,,B,Raw
1,Peter Hulin,M,Germany,130.1,140,Open,,,,,,240,245,250,,250,,,,,,250,B,Raw
2,Jan Rousek,M,Czechia,135.4,140,Open,,,,,,185,200,205,,205,,,,,,205,B,Raw
1,Michał Rudziński,M,Poland,157.6,140+,Open,,,,,,270,282.5,290,,290,,,,,,290,B,Raw
1,László Simon,M,Hungary,65.2,67.5,Submasters,,,,,,122.5,127.5,-132.5,,127.5,,,,,,127.5,B,Raw
1,Artur Czempiel,M,Poland,74.4,75,Submasters,,,,,,120,-127.5,127.5,,127.5,,,,,,127.5,B,Raw
DQ,Bartosz Słodek,M,Poland,68.5,75,Submasters,,,,,,-115,-115,-115,,,,,,,,,B,Raw
1,Branko Kautz,M,Germany,80.6,82.5,Submasters,,,,,,125,130,-135,,130,,,,,,130,B,Raw
1,Petr Novák,M,Czechia,89.3,90,Submasters,,,,,,155,-165,165,,165,,,,,,165,B,Raw
2,Andrzej Juraszek,M,Poland,89.4,90,Submasters,,,,,,160,162.5,-167.5,,162.5,,,,,,162.5,B,Raw
1,Paweł Tyborczyk,M,Poland,90.4,100,Submasters,,,,,,190,197.5,,,197.5,,,,,,197.5,B,Raw
2,Robert Kanclerz,M,Poland,95.1,100,Submasters,,,,,,190,-197.5,-200,,190,,,,,,190,B,Raw
1,Tomasz Napierała,M,Poland,103.7,110,Submasters,,,,,,180,192.5,-200,,192.5,,,,,,192.5,B,Raw
1,Erik Csókás,M,Poland,111.9,125,Submasters,,,,,,130,135,-140,,135,,,,,,135,B,Raw
1,Marek Makarewicz,M,Poland,126.1,140,Submasters,,,,,,-200,200,210,,210,,,,,,210,B,Raw
2,Michal Čorba,M,Slovakia,133.5,140,Submasters,,,,,,165,175,177.5,,177.5,,,,,,177.5,B,Raw
1,Dennis Glok,M,Germany,79.7,82.5,T 18-19,,,,,,,,,,,135,155,170,,170,170,D,Multi-ply
1,Igor Golecký,M,Slovakia,104,110,Juniors,,,,,,,,,,,240,260,280,,280,280,D,Multi-ply
1,Gerald Zöchmeister,M,Austria,92.8,100,M 40-44,,,,,,,,,,,-240,250,-265,,250,250,D,Multi-ply
1,Stefan Sochaňski,M,Poland,89.4,90,M 65-69,,,,,,,,,,,215,240,,,240,240,D,Multi-ply
1,Joachim Eulenstein,M,Germany,100.7,110,M 65-69,,,,,,,,,,,100,110,,,110,110,D,Multi-ply
1,Heinz-Joachim Probst,M,Germany,105,110,M 70-74,,,,,,,,,,,125,140,150,,150,150,D,Multi-ply
1,Jan Sylvester,M,Germany,124.8,125,Open,,,,,,,,,,,-240,250,265,,265,265,D,Multi-ply
1,Robert Sprutta,M,Poland,131.9,140,Open,,,,,,,,,,,280,300,,,300,300,D,Multi-ply
1,Klaudia Kochanowska,F,Poland,66.2,67.5,T 16-17,,,,,,,,,,,100,110,115,,115,115,D,Raw
2,Mickey Krejčík,F,Czechia,62.2,67.5,T 16-17,,,,,,,,,,,90,105,-112.5,,105,105,D,Raw
1,Joanna Gawron,F,Poland,58.7,60,Juniors,,,,,,,,,,,120,130,135,,135,135,D,Raw
1,Renata Zapała,F,Poland,74.4,75,Juniors,,,,,,,,,,,125,135,-142.5,,135,135,D,Raw
1,Elvira Gidró,F,Austria,48.5,52,Open,,,,,,,,,,,90,100,105,,105,105,D,Raw
1,Daria Krenn,F,Austria,66,67.5,Open,,,,,,,,,,,-140,140,150,,150,150,D,Raw
1,Bettina Razzouki-Korkis,F,Poland,56,56,M 50-54,,,,,,,,,,,100,110,117.5,,117.5,117.5,D,Raw
1,Krystyna Puzio,F,Poland,86.2,90,M 50-54,,,,,,,,,,,105,112.5,-120,,112.5,112.5,D,Raw
1,Ingrid Cedel,F,Germany,64.7,67.5,M 65-69,,,,,,,,,,,90,95,100,,100,100,D,Raw
1,Szymon Troll,M,Poland,62.7,67.5,T 16-17,,,,,,,,,,,135,140,155,,155,155,D,Raw
1,Jacub Bach,M,Poland,110.4,125,T 16-17,,,,,,,,,,,200,210,-215,,210,210,D,Raw
1,Lukas Kronberger,M,Austria,90,90,T 18-19,,,,,,,,,,,170,185,200,,200,200,D,Raw
1,Martin Hrabec,M,Czechia,103.2,110,Juniors,,,,,,,,,,,280,290,-300,,290,290,D,Raw
2,Wladimir Litvinenko,M,Germany,107.3,110,Juniors,,,,,,,,,,,270,290,-302.5,,290,290,D,Raw
1,Konrad Troll,M,Poland,73.1,75,M 40-44,,,,,,,,,,,170,185,200,,200,200,D,Raw
2,Thomas Fischer,M,Germany,72.7,75,M 40-44,,,,,,,,,,,140,147.5,152.5,,152.5,152.5,D,Raw
1,Sebastian Beck,M,Germany,81.4,82.5,M 40-44,,,,,,,,,,,210,230,245,,245,245,D,Raw
1,Gerald Zöchmeister,M,Austria,91.5,100,M 40-44,,,,,,,,,,,225,240,-250,,240,240,D,Raw
1,Mathias Hörning,M,Germany,113.4,125,M 40-44,,,,,,,,,,,270,280,-290,,280,280,D,Raw
1,Wolfgang Fischer,M,Germany,87.3,90,M 45-49,,,,,,,,,,,150,170,175,,175,175,D,Raw
1,Andreas Schmidt,M,Germany,98.5,100,M 45-49,,,,,,,,,,,235,245,265,,265,265,D,Raw
2,Rico Martinez,M,Germany,94.8,100,M 45-49,,,,,,,,,,,220,260,-270,,260,260,D,Raw
1,Robert Nemś,M,Poland,123.4,125,M 45-49,,,,,,,,,,,270,290,-300,,290,290,D,Raw
1,Björn Tesmer,M,Germany,73.1,75,M 50-54,,,,,,,,,,,155,165,172.5,,172.5,172.5,D,Raw
1,Helmut Silberbauer,M,Austria,94.1,100,M 50-54,,,,,,,,,,,220,235,250,,250,250,D,Raw
1,Tibor Gejdoš,M,Slovakia,104.6,110,M 50-54,,,,,,,,,,,200,-220,230,,230,230,D,Raw
1,František Öszi,M,Slovakia,178,140+,M 50-54,,,,,,,,,,,250,270,,,270,270,D,Raw
1,Hakki Bozat,M,Turkey,69.5,75,M 55-59,,,,,,,,,,,180,185,-190,,185,185,D,Raw
1,Ladislav Pasecký,M,Czechia,89.1,90,M 55-59,,,,,,,,,,,210,230,240,,240,240,D,Raw
1,Marian Knuth,M,Poland,98.6,100,M 55-59,,,,,,,,,,,225,235,240,,240,240,D,Raw
1,Piotr Redzik,M,Poland,127.3,140,M 55-59,,,,,,,,,,,200,220,230,,230,230,D,Raw
1,Antoni Kaliňski,M,Poland,67.2,67.5,M 60-64,,,,,,,,,,,-130,130,-135,,130,130,D,Raw
1,Manfred Geipel,M,Germany,74.1,75,M 60-64,,,,,,,,,,,135,145,150,,150,150,D,Raw
2,Zbigniew Koper,M,Poland,74.6,75,M 60-64,,,,,,,,,,,130,140,150,,150,150,D,Raw
1,Karel Schoř,M,Czechia,81.6,82.5,M 60-64,,,,,,,,,,,185,200,210,,210,210,D,Raw
1,Frank Kutzsch,M,Germany,89.1,90,M 60-64,,,,,,,,,,,225,237.5,245,,245,245,D,Raw
2,Wojtek Kaminski,M,Germany,86.8,90,M 60-64,,,,,,,,,,,150,160,170,,170,170,D,Raw
1,Józef Sokołowski,M,Poland,101.6,110,M 60-64,,,,,,,,,,,260,290,310,,310,310,D,Raw
2,Horst-Dieter Schoch,M,Germany,101.6,110,M 60-64,,,,,,,,,,,170,-190,,,170,170,D,Raw
1,Ryszard Śliwiński,M,Poland,74.7,75,M 65-69,,,,,,,,,,,135,142.5,150,,150,150,D,Raw
1,Jan Łuka,M,Poland,82.4,82.5,M 65-69,,,,,,,,,,,-170,170,,,170,170,D,Raw
1,Hartmut Wiechert,M,Germany,88.4,90,M 65-69,,,,,,,,,,,130,140,150,,150,150,D,Raw
1,Stefan Sochaňski,M,Poland,90.2,100,M 65-69,,,,,,,,,,,190,210,-225,,210,210,D,Raw
1,Gerd Cedel,M,Germany,69.9,75,M 70-74,,,,,,,,,,,127.5,132.5,135,,135,135,D,Raw
1,František Esser,M,Czechia,80.8,82.5,M 70-74,,,,,,,,,,,147.5,160,170,,170,170,D,Raw
1,Hans-Jürgen Kuhlmey,M,Germany,122.7,125,M 75-79,,,,,,,,,,,150,160,-170,,160,160,D,Raw
1,Grzegorz Indyka,M,Poland,72.8,75,Open,,,,,,,,,,,200,210,-220,,210,210,D,Raw
1,Andreas Machann,M,Germany,80.9,82.5,Open,,,,,,,,,,,180,205,215,,215,215,D,Raw
1,Miroslav Vítek,M,Czechia,89.9,90,Open,,,,,,,,,,,260,270,-280,,270,270,D,Raw
2,Wolfgang Fischer,M,Germany,87.3,90,Open,,,,,,,,,,,175,-185,,,175,175,D,Raw
1,Jaroslav Zelený,M,Czechia,98.7,100,Open,,,,,,,,,,,300,-320,320,,320,320,D,Raw
2,Manuel Grbac,M,Austria,94.1,100,Open,,,,,,,,,,,280,-300,-300,,280,280,D,Raw
1,Marcin Kuklis,M,Poland,103.7,110,Open,,,,,,,,,,,240,250,255,,255,255,D,Raw
1,Richard Gensch,M,Germany,113.1,125,Open,,,,,,,,,,,220,230,240,,240,240,D,Raw
1,Tamás Margittai,M,Hungary,100,100,Submasters,,,,,,,,,,,-290,290,,,290,290,D,Raw
1,Lars Stöwesandt,M,Germany,102.6,110,Submasters,,,,,,,,,,,260,270,280,,280,280,D,Raw
1,Andrea Pauli,F,Germany,67.5,67.5,Open,-140,140,152.5,,152.5,90,100,-102.5,,100,135,150,155,,155,407.5,SBD,Multi-ply
1,Sabine Kraus,F,Germany,75,75,M 45-49,-135,135,152.5,160,152.5,67.5,-72.5,75,,75,120,132.5,-140,,132.5,360,SBD,Multi-ply
1,Jodi Parkhurst,F,USA,83.3,90,M 45-49,140,-155,-155,,140,70,85,-95.5,-95.5,85,100,120,-137.5,,120,345,SBD,Multi-ply
1,Lion Lowag,M,Germany,104.4,110,T 16-17,230,251,265,,265,135,142.5,150,155,150,200,222.5,242.5,,242.5,657.5,SBD,Multi-ply
1,Lukáš Seifert,M,Czechia,78.9,82.5,Juniors,200,225,240,,240,100,120,130,,130,220,240,250,,250,620,SBD,Multi-ply
DQ,Břetislav Kučera,M,Czechia,99.5,100,Juniors,-300,-300,-300,,,,,,,,,,,,,,SBD,Multi-ply
1,Enrico Morwitz,M,Germany,79.5,82.5,Open,165,172.5,-180,,172.5,105,110,-112.5,,110,165,175,-182.5,,175,457.5,SBD,Multi-ply
1,Juraj Barnet,M,Slovakia,90,90,Open,210,230,240,,240,180,-200,-200,,180,210,-230,,,210,630,SBD,Multi-ply
DQ,Lukáš Jiruška,M,Czechia,99.9,100,Open,-290,-290,-310,,,-220,-220,-220,,,,,,,,,SBD,Multi-ply
1,Christopher Röper,M,Germany,108.8,110,Open,335,355,-370,,355,270,285,-292.5,,285,-285,-285,285,,285,925,SBD,Multi-ply
DQ,Patrik Navara,M,Czechia,105.9,110,Open,-420,-420,-420,,,,,,,,,,,,,,SBD,Multi-ply
1,Martin Košnar,M,Czechia,124,125,Open,340,360,380,,380,280,300,310,,310,300,310,320,,320,1010,SBD,Multi-ply
1,Silvio Rücker,M,Germany,126.7,140,Open,-325,325,340,,340,235,245,255,,255,250,270,285,,285,880,SBD,Multi-ply
1,Václav Češka,M,Czechia,155.8,140+,Open,440,460,480,,480,320,330,,,330,320,340,-350,,340,1150,SBD,Multi-ply
1,Erik Knöfler,M,Germany,98.8,100,Submasters,350,-377.5,377.5,390,377.5,220,235,-250.5,-250.5,235,-280,280,-300.5,,280,892.5,SBD,Multi-ply
1,Sirko Petermann,M,Germany,123.4,125,Submasters,325,-352.5,352.5,,352.5,230,260.5,,,260.5,275,287.5,300,,300,913,SBD,Multi-ply
1,Ondrej Hudák,M,Slovakia,113.7,125,M 40-44,300,-360,-370,,300,240,260,272.5,,272.5,280,300,-310,,300,872.5,SBD,Multi-ply
2,Roman Reisch,M,Germany,124.7,125,M 40-44,220,-235,-250,,220,-187.5,187.5,200,,200,217.5,230,245,,245,665,SBD,Multi-ply
1,Markus Zehethofer,M,Austria,135.8,140,M 40-44,-350,350,-380,,350,260,280,-290,,280,305,320,330,348,330,960,SBD,Multi-ply
DQ,Luca Segrer,M,Italy,81.3,82.5,M 45-49,-225,-235,-240,,,,,,,,,,,,,,SBD,Multi-ply
1,Rudolf Siska,M,Slovakia,83.7,90,M 45-49,230,250,-255,,250,170,180,-190,,180,175,190,-200,,190,620,SBD,Multi-ply
1,Torsten Kammer,M,Germany,91.6,100,M 45-49,210,225,230,,230,140,-147.5,-147.5,,140,190,200,210,,210,580,SBD,Multi-ply
2,Mark Calvert,M,USA,91.5,100,M 45-49,185,200,-212.5,,200,115,125,-135,,125,200,210,-227.5,,210,535,SBD,Multi-ply
1,Maik Teichert,M,Germany,118.9,125,M 45-49,100,120,150,,150,-170,170,-225,,170,140,-180,,,140,460,SBD,Multi-ply
1,Sergio Bianchi,M,Italy,88.1,90,M 55-59,210,230,240,,240,95,102.5,110,,110,190,200,,,200,550,SBD,Multi-ply
DQ,Peter Radtke,M,Germany,88.4,90,M 55-59,-250,-270,-270,,-250,-170,-170,-170,,,,,,,,,SBD,Multi-ply
1,Burkhard Steffen,M,Germany,72.3,75,M 65-69,155,-165,172.5,,172.5,95,100,-105,,100,145,155,-160,,155,427.5,SBD,Multi-ply
1,Stefan Sochaňski,M,Poland,89.1,90,M 65-69,215,-235,-235,,215,115,125,-135,,125,225,245,260,,260,600,SBD,Multi-ply
1,Heinz Stroi,M,Austria,96.9,100,M 65-69,-120,120,140,,140,100,-110,-130,,100,140,160,180,,180,420,SBD,Multi-ply
1,Heinz-Joachim Probst,M,Germany,105.8,110,M 70-74,100,110,120,,120,80,90,100,,100,120,140,145,,145,365,SBD,Multi-ply
1,Wolfgang Hökendorf,M,Germany,74.5,75,M 70-74,-110,120,-130,,120,90,110,115,,115,120,137.5,150,,150,385,SBD,Multi-ply
