Division,WeightClassKg,Place,Name,Team,BodyweightKg,Best3SquatKg,Best3BenchKg,Best3DeadliftKg,TotalKg,Equipment,Event,Sex
Boys,51.71,1,Robert Chapa,Gregory-Portland,51.53,163.29,92.99,176.9,433.18,Single-ply,SBD,M
Boys,51.71,2,Thomas Soto,Corpus Christi Calallen,50.98,149.69,81.65,181.44,412.77,Single-ply,SBD,M
Boys,51.71,3,Bruizer Del Bosque,Bishop,46.45,136.08,74.84,136.08,347,Single-ply,SBD,M
Boys,55.79,4,Jonathan Starks,Banquete,51.89,124.74,74.84,131.54,331.12,Single-ply,SBD,M
Boys,55.79,5,Daniel Porras,Orange Grove,51.89,113.4,58.97,145.15,317.51,Single-ply,SBD,M
Boys,51.71,6,Robert Ramos,Corpus Christi Tuloso-Midway,51.26,115.67,58.97,113.4,288.03,Single-ply,SBD,M
Boys,51.71,7,Mauro Garcia,Port Lavaca Calhoun,50.08,108.86,58.97,113.4,281.23,Single-ply,SBD,M
Boys,51.71,8,Garrett Wildman,Banquete,51.53,86.18,52.16,95.25,233.6,Single-ply,SBD,M
Boys,51.71,9,Shane Stehle,Orange Grove,44.09,79.38,36.29,106.59,222.26,Single-ply,SBD,M
Boys,51.71,10,Bobby Bourlon,Banquete,49.62,72.57,52.16,81.65,206.38,Single-ply,SBD,M
Boys,51.71,11,Austin Ramos,Corpus Christi Tuloso-Midway,34.02,70.31,29.48,63.5,163.29,Single-ply,SBD,M
Boys,51.71,DQ,Carlos Weckmann,Corpus Christi Tuloso-Midway,51.26,83.91,,,,Single-ply,SBD,M
Boys,55.79,1,Daniel Chapa,Gregory-Portland,54.52,161.03,97.52,181.44,439.98,Single-ply,SBD,M
Boys,55.79,2,Josh Lomas,Crystal City,55.34,136.08,79.38,158.76,374.21,Single-ply,SBD,M
Boys,55.79,3,Edward Davidson,Alice,54.52,106.59,65.77,129.27,301.64,Single-ply,SBD,M
Boys,55.79,DQ,Jared Medina,Banquete,53.52,88.45,,,,Single-ply,SBD,M
Boys,55.79,DQ,Christian Gonzalez,Weslaco,53.8,,,,,Single-ply,SBD,M
Boys,59.87,1,Rico Rodriguez,San Diego,59.69,151.95,90.72,183.7,426.38,Single-ply,SBD,M
Boys,67.13,2,Juan Gonzalez,Alice,59.96,142.88,86.18,176.9,405.97,Single-ply,SBD,M
Boys,67.13,3,Arnold Bueno,Banquete,59.96,147.42,92.99,142.88,383.29,Single-ply,SBD,M
Boys,59.87,4,Robert Seward,Corpus Christi Calallen,57.42,136.08,81.65,158.76,376.48,Single-ply,SBD,M
Boys,67.13,5,Josue Gonzalez,Corpus Christi Calallen,59.96,136.08,79.38,140.61,356.07,Single-ply,SBD,M
Boys,59.87,6,Ben Heard,Corpus Christi Calallen,56.7,131.54,74.84,147.42,353.8,Single-ply,SBD,M
Boys,67.13,7,Martin Cuellar,Orange Grove,60.06,133.81,70.31,120.2,324.32,Single-ply,SBD,M
Boys,59.87,8,Jordan Cole,Aransas Pass,58.24,113.4,81.65,117.93,312.98,Single-ply,SBD,M
Boys,59.87,9,Byron Davidson,Corpus Christi Calallen,58.51,113.4,56.7,133.81,303.91,Single-ply,SBD,M
Boys,59.87,10,Colton Hahn,Port Lavaca Calhoun,59.24,129.27,61.23,111.13,301.64,Single-ply,SBD,M
Boys,59.87,DQ,Michael Cacares,Weslaco,59.87,127.01,,,,Single-ply,SBD,M
Boys,59.87,DQ,Stevie Garcia,Odem,58.51,,,,,Single-ply,SBD,M
Boys,67.13,DQ,Johnny Alvarado,Crystal City,59.96,72.57,,,,Single-ply,SBD,M
Boys,67.13,1,JJ Gonzales,Gregory-Portland,66.77,235.87,140.61,222.26,598.74,Single-ply,SBD,M
Boys,67.13,2,Matt Buentello,Corpus Christi Tuloso-Midway,65.77,170.1,102.06,201.85,474,Single-ply,SBD,M
Boys,67.13,3,Jared Reilly,Corpus Christi Calallen,66.22,161.03,99.79,195.04,455.86,Single-ply,SBD,M
Boys,67.13,4,Justin Gonzalez,Weslaco,63.05,181.44,92.99,165.56,439.98,Single-ply,SBD,M
Boys,74.84,5,Jay Trevino,Banquete,67.31,156.49,117.93,165.56,439.98,Single-ply,SBD,M
Boys,67.13,6,Josh Munoz,Beeville Jones,65.86,158.76,108.86,167.83,435.45,Single-ply,SBD,M
Boys,67.13,7,Edward Palomin,Weslaco,65.77,163.29,104.33,158.76,426.38,Single-ply,SBD,M
Boys,67.13,8,Benji Gomez,Beeville Jones,65.77,158.76,95.25,154.22,408.23,Single-ply,SBD,M
Boys,67.13,9,Ray Valdez,Orange Grove,64.77,149.69,86.18,170.1,405.97,Single-ply,SBD,M
Boys,67.13,10,Jeremy Sauceda,Corpus Christi Tuloso-Midway,66.68,149.69,113.4,142.88,405.97,Single-ply,SBD,M
Boys,67.13,11,Michael Rosas,Beeville Jones,61.6,136.08,83.91,145.15,365.14,Single-ply,SBD,M
Boys,67.13,12,Juan Rodriguez,Crystal City,63.68,124.74,83.91,154.22,362.87,Single-ply,SBD,M
Boys,67.13,13,Albert Salinas,Bishop,61.69,151.95,68.04,136.08,356.07,Single-ply,SBD,M
Boys,67.13,14,Trevor Elizondo,Alice,63.96,113.4,92.99,145.15,351.53,Single-ply,SBD,M
Boys,67.13,15,Bryce Kneip,Corpus Christi Calallen,61.96,131.54,72.57,140.61,344.73,Single-ply,SBD,M
Boys,67.13,16,Tyler Pastrano,San Diego,63.5,111.13,74.84,136.08,322.05,Single-ply,SBD,M
Boys,67.13,17,Baltazqr Ramirez,San Diego,67.13,124.74,63.5,129.27,317.51,Single-ply,SBD,M
Boys,67.13,18,Justin Sobzak,Corpus Christi Tuloso-Midway,66.68,122.47,68.04,122.47,312.98,Single-ply,SBD,M
Boys,67.13,19,Dillon Herschap,Orange Grove,66.13,104.33,68.04,120.2,292.57,Single-ply,SBD,M
Boys,67.13,DQ,Julian Morales,Weslaco,64.41,174.63,,,,Single-ply,SBD,M
Boys,74.84,DQ,Jonah Gomez,Odem,67.22,,,,,Single-ply,SBD,M
Boys,67.13,DQ,Paul Hoang,Alice,66.59,142.88,102.06,,,Single-ply,SBD,M
Boys,74.84,1,Andy Mohl,Corpus Christi Tuloso-Midway,74.39,206.38,136.08,197.31,539.77,Single-ply,SBD,M
Boys,74.84,2,Stevin Leal,Corpus Christi Tuloso-Midway,73.94,206.38,117.93,199.58,523.9,Single-ply,SBD,M
Boys,74.84,3,Mario Davila,Aransas Pass,71.67,174.63,106.59,185.97,467.2,Single-ply,SBD,M
Boys,74.84,4,Jose Gonzalez #15,Alice,73.12,165.56,70.31,179.17,415.04,Single-ply,SBD,M
Boys,74.84,5,Julina Salas,Orange Grove,71.58,142.88,104.33,165.56,412.77,Single-ply,SBD,M
Boys,74.84,6,Victor Ta,Port Lavaca Calhoun,70.49,154.22,86.18,163.29,403.7,Single-ply,SBD,M
Boys,74.84,7,Joe Garcia,Odem,68.67,151.95,106.59,142.88,401.43,Single-ply,SBD,M
Boys,74.84,8,Christian Sala,Odem,67.77,133.81,97.52,158.76,390.09,Single-ply,SBD,M
Boys,74.84,9,Austin Castillo,Corpus Christi Calallen,70.03,136.08,88.45,163.29,387.82,Single-ply,SBD,M
Boys,74.84,10,Austin Lofthouse,Corpus Christi Tuloso-Midway,74.39,120.2,83.91,183.7,387.82,Single-ply,SBD,M
Boys,74.84,11,Jake McDavid,Aransas Pass,69.58,136.08,92.99,147.42,376.48,Single-ply,SBD,M
Boys,74.84,12,Nathan Sanchez #3,Corpus Christi Calallen,69.4,138.35,74.84,142.88,356.07,Single-ply,SBD,M
Boys,74.84,13,Eddie Garza,San Diego,72.57,136.08,65.77,149.69,351.53,Single-ply,SBD,M
Boys,74.84,14,Jacob Flores,Beeville Jones,74.48,138.35,77.11,124.74,340.19,Single-ply,SBD,M
Boys,74.84,15,Ricky de la Paz,San Diego,72.94,104.33,74.84,142.88,322.05,Single-ply,SBD,M
Boys,74.84,DQ,Dillion Torres,Beeville Jones,68.76,136.08,,,,Single-ply,SBD,M
Boys,82.1,1,Marty Saenz,San Diego,80.2,247.21,131.54,229.06,607.81,Single-ply,SBD,M
Boys,82.1,2,Gabriel Longoria,Corpus Christi Calallen,82.1,238.14,138.35,226.8,603.28,Single-ply,SBD,M
Boys,82.1,3,Brandon Castillo,Corpus Christi Calallen,78.65,210.92,138.35,217.72,566.99,Single-ply,SBD,M
Boys,82.1,4,Kameron Handy,Corpus Christi Tuloso-Midway,81.19,226.8,133.81,197.31,557.92,Single-ply,SBD,M
Boys,82.1,5,Kirk Salinas,Banquete,81.65,215.46,136.08,192.78,544.31,Single-ply,SBD,M
Boys,82.1,6,Ernesto Tafolla,Weslaco,81.65,201.85,108.86,204.12,514.83,Single-ply,SBD,M
Boys,82.1,7,Reno Perez,San Diego,82.1,199.58,104.33,199.58,503.49,Single-ply,SBD,M
Boys,82.1,8,Fernando Flores,Corpus Christi Tuloso-Midway,81.65,172.37,111.13,208.65,492.15,Single-ply,SBD,M
Boys,89.81,9,Leo Adams,Alice,82.28,158.76,127.01,190.51,476.27,Single-ply,SBD,M
Boys,82.1,10,Stevie Jackson,Aransas Pass,76.38,170.1,113.4,181.44,464.93,Single-ply,SBD,M
Boys,82.1,11,Marcus Klamm,Port Lavaca Calhoun,75.84,167.83,108.86,185.97,462.66,Single-ply,SBD,M
Boys,82.1,12,Quinton Baria,Corpus Christi Tuloso-Midway,81.19,167.83,104.33,185.97,458.13,Single-ply,SBD,M
Boys,82.1,13,Jacob Martinez,Kingsville King,77.38,149.69,113.4,165.56,428.64,Single-ply,SBD,M
Boys,82.1,14,Robert Moctezuma,San Diego,81.56,181.44,90.72,147.42,419.57,Single-ply,SBD,M
Boys,82.1,15,Gabriel Jimenez,Gregory-Portland,76.29,142.88,81.65,154.22,378.75,Single-ply,SBD,M
Boys,89.81,16,Matthew Cantu,San Diego,82.28,115.67,70.31,124.74,310.71,Single-ply,SBD,M
Boys,82.1,DQ,Joey Perez,Crystal City,81.92,210.92,,,,Single-ply,SBD,M
Boys,82.1,DQ,Robert Leal,Corpus Christi Tuloso-Midway,81.65,167.83,108.86,,,Single-ply,SBD,M
Boys,89.81,1,Brandon Griffith,Port Lavaca Calhoun,89.18,233.6,172.37,249.48,655.44,Single-ply,SBD,M
Boys,89.81,2,Jose Saucedo,Port Lavaca Calhoun,88.36,240.4,163.29,217.72,621.42,Single-ply,SBD,M
Boys,89.81,3,Javiel Rojas,Kingsville King,82.74,226.8,124.74,238.14,589.67,Single-ply,SBD,M
Boys,89.81,4,Enrique Olachia,Port Lavaca Calhoun,89.27,226.8,124.74,226.8,578.33,Single-ply,SBD,M
Boys,89.81,5,Alex Tanguma,Corpus Christi Calallen,88.81,217.72,129.27,217.72,564.72,Single-ply,SBD,M
Boys,89.81,6,Chris Castillo,Corpus Christi Tuloso-Midway,88.9,165.56,106.59,192.78,464.93,Single-ply,SBD,M
Boys,89.81,7,David Perez #3,Bishop,84.1,181.44,102.06,174.63,458.13,Single-ply,SBD,M
Boys,89.81,8,AJ Alvarez,Bishop,88.54,170.1,102.06,185.97,458.13,Single-ply,SBD,M
Boys,89.81,9,Antonio Barrera,Corpus Christi Tuloso-Midway,89.36,170.1,111.13,170.1,451.32,Single-ply,SBD,M
Boys,89.81,10,Tony Zapata,Alice,84.73,165.56,95.25,165.56,426.38,Single-ply,SBD,M
Boys,89.81,11,Jesse Cedillo,Banquete,88.45,149.69,97.52,154.22,401.43,Single-ply,SBD,M
Boys,89.81,12,Zach Gonzales,Orange Grove,85.28,158.76,86.18,154.22,399.16,Single-ply,SBD,M
Boys,89.81,13,Jeremiah Keever,Bishop,83.82,161.03,65.77,165.56,392.36,Single-ply,SBD,M
Boys,89.81,14,Ben Burkett,Bishop,87.63,158.76,86.18,145.15,390.09,Single-ply,SBD,M
Boys,89.81,15,Jesse Gonzales,Kingsville King,83.82,140.61,74.84,158.76,374.21,Single-ply,SBD,M
Boys,89.81,16,Chris Izaguirre,Gregory-Portland,86.91,133.81,74.84,158.76,367.41,Single-ply,SBD,M
Boys,89.81,17,Jesus Carrasco,Alice,85,133.81,70.31,161.03,365.14,Single-ply,SBD,M
Boys,89.81,DQ,Roy Saenz,Bishop,83.37,149.69,,,,Single-ply,SBD,M
Boys,89.81,DQ,Sammy Jasso,Odem,86.27,,,,,Single-ply,SBD,M
Boys,99.79,1,Andres Castellanos,Corpus Christi Tuloso-Midway,92.53,240.4,131.54,244.94,616.89,Single-ply,SBD,M
Boys,99.79,2,John Herrera,Banquete,92.62,224.53,142.88,226.8,594.21,Single-ply,SBD,M
Boys,99.79,3,Luis Lopez #3,San Diego,93.44,219.99,142.88,226.8,589.67,Single-ply,SBD,M
Boys,99.79,4,Nick Trevino #2,Kingsville King,98.16,183.7,108.86,240.4,532.97,Single-ply,SBD,M
Boys,99.79,5,Josh Pina,Odem,98.52,192.78,136.08,158.76,487.61,Single-ply,SBD,M
Boys,99.79,6,Luis Guerra,Bishop,93.8,190.51,79.38,181.44,451.32,Single-ply,SBD,M
Boys,99.79,7,Jesse Gomez,Kingsville King,94.08,183.7,108.86,151.95,444.52,Single-ply,SBD,M
Boys,99.79,8,Thomas Olvalle,Port Lavaca Calhoun,91.81,188.24,111.13,142.88,442.25,Single-ply,SBD,M
Boys,99.79,9,Jonathan Chavana,Port Lavaca Calhoun,95.25,163.29,104.33,167.83,435.45,Single-ply,SBD,M
Boys,99.79,10,Cody Herrera,Orange Grove,95.07,133.81,102.06,165.56,401.43,Single-ply,SBD,M
Boys,99.79,11,Walter Altamirano,Beeville Jones,95.44,131.54,97.52,136.08,365.14,Single-ply,SBD,M
Boys,99.79,12,Carlos Munguia,Corpus Christi Tuloso-Midway,99.34,131.54,72.57,117.93,322.05,Single-ply,SBD,M
Boys,99.79,DQ,Justin Salinas,Kingsville King,95.07,176.9,122.47,,,Single-ply,SBD,M
Boys,99.79,DQ,Justin Lomas,Crystal City,93.44,,,,,Single-ply,SBD,M
Boys,99.79,DQ,Luis Monsevias,Orange Grove,97.25,165.56,,,,Single-ply,SBD,M
Boys,99.79,DQ,Larry Cardenas,Weslaco,94.44,,,,,Single-ply,SBD,M
Boys,109.77,1,Harley Vickers,Alice,104.42,235.87,147.42,197.31,580.6,Single-ply,SBD,M
Boys,109.77,2,Michael Wiser,Corpus Christi Calallen,107.95,213.19,124.74,226.8,564.72,Single-ply,SBD,M
Boys,109.77,3,Ram Montalvo,Orange Grove,107.59,217.72,124.74,215.46,557.92,Single-ply,SBD,M
Boys,109.77,4,Mauricio Verdin,Weslaco,101.7,217.72,124.74,208.65,551.11,Single-ply,SBD,M
Boys,109.77,5,Ruben Ramirez,Aransas Pass,102.15,206.38,129.27,215.46,551.11,Single-ply,SBD,M
Boys,109.77,6,Zach Garcia,Alice,104.42,201.85,149.69,197.31,548.85,Single-ply,SBD,M
Boys,109.77,7,Esteban Resendez,Alice,103.33,204.12,111.13,197.31,512.56,Single-ply,SBD,M
Boys,109.77,8,Matt Watson #2,Corpus Christi Tuloso-Midway,108.86,188.24,136.08,176.9,501.22,Single-ply,SBD,M
Boys,109.77,9,Jaime Gutierrez,Port Lavaca Calhoun,104.05,195.04,136.08,163.29,494.42,Single-ply,SBD,M
Boys,109.77,10,Alex Garcia #6,San Diego,104.51,158.76,99.79,201.85,460.4,Single-ply,SBD,M
Boys,109.77,11,Marcus Hinojosa,Bishop,101.24,154.22,79.38,142.88,376.48,Single-ply,SBD,M
Boys,109.77,12,John Acuna,Kingsville King,103.6,115.67,92.99,158.76,367.41,Single-ply,SBD,M
Boys,109.77,DQ,Jeremy Borrego,Banquete,103.24,,,,,Single-ply,SBD,M
Boys,109.77,DQ,Robert Cardenas,Corpus Christi Tuloso-Midway,102.06,176.9,,,,Single-ply,SBD,M
Boys,124.74,1,Jose Cantu,Weslaco,114.4,278.96,127.01,215.46,621.42,Single-ply,SBD,M
Boys,124.74,2,Richie Salinas,Kingsville King,119.93,199.58,161.03,183.7,544.31,Single-ply,SBD,M
Boys,124.74,3,Alex Zamora,Weslaco,113.04,226.8,113.4,192.78,532.97,Single-ply,SBD,M
Boys,124.74+,4,Morgan Molina,Port Lavaca Calhoun,124.96,183.7,104.33,142.88,430.91,Single-ply,SBD,M
Boys,124.74,5,Kris Gebert,Orange Grove,112.49,147.42,104.33,158.76,410.5,Single-ply,SBD,M
Boys,124.74,6,Cameron Elerbee,Beeville Jones,112.58,151.95,99.79,151.95,403.7,Single-ply,SBD,M
Boys,124.74+,1,Oscar Ortiz,Orange Grove,138.62,265.35,174.63,226.8,666.78,Single-ply,SBD,M
Boys,124.74+,2,Adam Aleman,Beeville Jones,153.59,244.94,142.88,213.19,601.01,Single-ply,SBD,M
Boys,124.74+,3,Steven Rodriguez,Corpus Christi Calallen,134.35,238.14,138.35,201.85,578.33,Single-ply,SBD,M
Boys,124.74+,4,Dylan Strickland,Corpus Christi Calallen,131,226.8,140.61,204.12,571.53,Single-ply,SBD,M
Boys,124.74+,5,Mario Alaniz,San Diego,126.01,204.12,124.74,233.6,562.45,Single-ply,SBD,M
Boys,124.74+,6,Antonio Galvan,Aransas Pass,128.64,254.01,129.27,174.63,557.92,Single-ply,SBD,M
Boys,124.74+,7,Jerrod Grantz,Aransas Pass,127.1,188.24,133.81,206.38,528.44,Single-ply,SBD,M
Boys,124.74+,8,Sergio Garcia,Corpus Christi Calallen,138.25,195.04,102.06,192.78,489.88,Single-ply,SBD,M
Boys,124.74+,9,Bryan Tatchula,Port Lavaca Calhoun,138.25,199.58,136.08,142.88,478.54,Single-ply,SBD,M
Boys,124.74+,10,Luis Lopez #1,Kingsville King,133.72,183.7,88.45,174.63,446.79,Single-ply,SBD,M
Boys,124.74+,DQ,Orion Rivera,San Diego,132.72,199.58,,,,Single-ply,SBD,M
Boys,124.74+,DQ,Robert Lugo,Weslaco,127.28,195.04,,,,Single-ply,SBD,M
