Place,Name,Sex,BirthDate,Age,Country,Equipment,Division,BodyweightKg,WeightClassKg,Squat1Kg,Squat2Kg,Squat3Kg,Best3SquatKg,Bench1Kg,Bench2Kg,Bench3Kg,Bench4Kg,Best3BenchKg,Deadlift1Kg,Deadlift2Kg,Deadlift3Kg,Deadlift4Kg,Best3DeadliftKg,TotalKg,Event,Team
1,Julia Vanhoorne,F,1985-11-22,36,New Zealand,Raw,Submasters 33-39,54.5,56,105,110,112.5,112.5,70,72.5,75,76,75,132.5,140,-145,,140,327.5,SBD,
1,Maia Carrington,F,2000-05-05,22,New Zealand,Wraps,Juniors 20-23,127.3,90+,165,172.5,180,180,97.5,100,107.5,110,107.5,190,202.5,212.5,215,212.5,500,SBD,Cage Barbell
1,Apikera Thomas,F,1981-05-25,41,New Zealand,Raw,Masters 40-44,73.3,75,125,135,140,140,87.5,95,-100,,95,162.5,172.5,177.5,,177.5,412.5,SBD,Cage Barbell
1,Anna Lord,F,1978-07-05,,New Zealand,Wraps,Masters 40-44,81.6,82.5,150,160,-170,160,72.5,77.5,-80,,77.5,145,155,165,,165,402.5,SBD,Body Core
1,Mandy Davies,F,1977-12-10,44,New Zealand,Wraps,Masters 40-44,87.55,90,70,80,100,100,60,62.5,-65,,62.5,130,140,-160,,140,302.5,SBD,
1,Leonie McCraith,F,1970-12-31,51,New Zealand,Raw,Masters 50-54,63.8,67.5,65,70,-75,70,50,52.5,-55,,52.5,100,105,-110,,105,227.5,SBD,Cage Barbell
1,Lara Crosby,F,1971-11-16,50,New Zealand,Wraps,Masters 50-54,71.4,75,130,140,-150,140,90,95,100,,100,130,140,150,,150,390,SBD,Cage Barbell
DQ,Dianne Leach,F,1963-05-08,59,New Zealand,Raw,Masters 55-59,84.1,90,,,,,32.5,35,-37.5,,35,80,90,-95,,90,,SBD,Cage Barbell
1,Kat Stevens,F,1989-11-16,32,New Zealand,Raw,Open,59.5,60,65,70,77.5,77.5,45,50,-52.5,,50,105,115,125,,125,252.5,SBD,Cage Barbell
1,Nicala Cuthbert,F,1991-08-17,30,New Zealand,Raw,Open,62.45,67.5,105,110,115,115,-48,52.5,-55,,52.5,125,140,-150,,140,307.5,SBD,
1,Jaime Canton,F,1991-06-18,30,New Zealand,Wraps,Open,81.8,82.5,135,-145,-145,135,72.5,-77.5,,,72.5,175,185,-195,,185,392.5,SBD,Cage Barbell
2,Felicity Baxter-mackay,F,1994-05-23,28,New Zealand,Raw,Open,76.4,82.5,85,100,110,110,50,-57.5,60,,60,90,115,125,,125,295,SBD,
1,Amy McAdams,F,1997-01-03,25,New Zealand,Wraps,Open,93,90+,125,135,145,145,-75,80,-85,,80,170,185,200,,200,425,SBD,Kiwi Strength
1,Sarah Foden,F,1984-04-06,38,New Zealand,Raw,Submasters 33-39,123.85,90+,100,110,-120,110,60,65,-67.5,,65,150,165,-180,,165,340,SBD,
1,Dee Tyler,F,1989-02-03,33,New Zealand,Raw,Submasters 33-39,72.1,75,130,140,145,145,62.5,-65,65,,65,135,145,-152.5,,145,355,SBD,
DQ,Ella Aiono,F,1988-03-25,34,New Zealand,Raw,Submasters 33-39,84.5,90,60,70,-77.5,70,-52.5,-52.5,,,,115,120,140,,140,,SBD,Cage Barbell
1,Lydia Morris,F,2002-08-24,19,New Zealand,Wraps,Teen 18-19,54.65,56,95,-105,-105,95,40,45,-48,,45,105,112.5,-125,,112.5,252.5,SBD,Kiwi Strength
DQ,Bella Carrington,F,2007-06-06,15,New Zealand,Raw,Teen 13-15,102.25,90+,70,75,-80,75,,,,,,80,85,100,,100,,SBD,Cage Barbell
1,Sara Cornelius,F,1979-09-12,42,New Zealand,Single-ply,Masters 40-44,89.8,90,140,150,160,160,90,-95,-95,,90,150,160,-170,,160,410,SBD,Cage Barbell
1,Jo Wemyss,F,1974-04-09,48,New Zealand,Single-ply,Masters 45-49,77.25,82.5,95,105,120,120,60,-65,65,,65,120,130,140,,140,325,SBD,Cage Barbell
1,Aroha Tokona,F,1990-03-03,32,New Zealand,Single-ply,Open,86.3,90,60,70,90,90,62.5,65,-70,,65,100,110,120,,120,275,SBD,Cage Barbell
DQ,Zoe Marr,F,1983-05-30,,New Zealand,Unlimited,Submasters 33-39,88.8,90,135,147.5,160,160,125,132.5,140.5,-150,140.5,,,,,,,SBD,Cage Barbell
1,Jakob Merson,M,2000-04-15,22,New Zealand,Wraps,Juniors 20-23,80.3,82.5,210,-225,225,225,120,-125,-125,,120,230,-240,-240,,230,575,SBD,Kiwi Strength
1,Jonathan Swete,M,1981-03-06,41,New Zealand,Wraps,Masters 40-44,124.5,125,270,280,-285,280,150,160,-162.5,,160,250,265,-272.5,,265,705,SBD,
DQ,Francis McCormick,M,1980-03-26,42,New Zealand,Raw,Masters 40-44,127.65,140,150,165,180,180,80,90,-100,,90,,,,,,,SBD,Cage Barbell
1,Delfin Fincham,M,1975-08-06,46,New Zealand,Raw,Masters 45-49,64.1,67.5,160,170,-180,170,97.5,102.5,105,107.5,105,200,212.5,215,-220,215,490,SBD,Kiwi Strength
1,Te Awheroa Gilbert,M,1977-05-25,45,New Zealand,Wraps,Masters 45-49,84.8,90,-100,100,120,120,110,120,125,,125,140,160,180,,180,425,SBD,
1,James Caufield,M,1977-02-28,45,New Zealand,Raw,Masters 45-49,108.8,110,130,140,-155,140,90,-97.5,-97.5,,90,185,200,212.5,,212.5,442.5,SBD,
1,Tyrone Tomlinson,M,1997-09-27,24,New Zealand,Wraps,Open,101.4,110,265,285,300,300,165,180,190,,190,270,290,-310,,290,780,SBD,
2,Max Knapp,M,1994-12-21,27,New Zealand,Wraps,Open,105.75,110,220,-240,240,240,120,135,140,,140,220,250,-270,,250,630,SBD,
1,Jessie-James Mount,M,1994-05-23,28,New Zealand,Raw,Open,123.7,125,152.5,167.5,200,200,125,135,145,,145,180,200,-220,,200,545,SBD,
1,Jason Dark,M,1993-02-20,29,New Zealand,Wraps,Open,129.9,140,270,280,295,295,170,180,-187.5,,180,255,270,280,,280,755,SBD,
2,Kenneth Occonnell,M,1996-03-19,26,New Zealand,Raw,Open,136.55,140,230,245,255,255,155,165,175,,175,260,275,285,,285,715,SBD,
DQ,John Tyrrell,M,1969-06-09,53,New Zealand,Unlimited,Masters 50-54,108.3,110,250,-260,,250,-190,-200,-200,,,260,285,,,285,,SBD,Kiwi Strength
1,Joe Canton,M,1988-05-26,34,New Zealand,Single-ply,Submasters 33-39,105.9,110,,,,,-150,-160,160,,160,,,,,,160,B,Cage barbell
1,Ross McDougall,M,1983-06-29,38,New Zealand,Unlimited,Submasters 33-39,117.4,125,,,,,230,240,-250,,240,,,,,,240,B,
