Division,WeightClassKg,Place,Name,Team,BodyweightKg,Best3SquatKg,Best3BenchKg,Best3DeadliftKg,TotalKg,Equipment,Event,Sex
Boys,55.79,1,Chris Raine,Frisco Liberty,51.75,108.86,68.04,115.67,292.57,Single-ply,SBD,M
Boys,55.79,2,Eddie Kimura,Richardson Pearce,51.8,104.33,65.77,111.13,281.23,Single-ply,SBD,M
Boys,51.71,3,Bailey Forst,Frisco Heritage,43.09,97.52,49.9,97.52,244.94,Single-ply,SBD,M
Boys,51.71,DQ,Michael Robason,Frisco Wakeland,51.26,158.76,,,,Single-ply,SBD,M
Boys,55.79,1,Toni Ogunsola,Frisco,55.34,165.56,88.45,165.56,419.57,Single-ply,SBD,M
Boys,55.79,2,Andrew Wilson,Frisco Wakeland,55.61,129.27,72.57,131.54,333.39,Single-ply,SBD,M
Boys,55.79,3,Kolby Dodson,Frisco Centennial,52.93,104.33,63.5,127.01,294.84,Single-ply,SBD,M
Boys,59.87,4,Michael Laday,Richardson Pearce,56.02,106.59,65.77,117.93,290.3,Single-ply,SBD,M
Boys,59.87,1,Brandon Lewellan,Frisco Wakeland,59.78,151.95,68.04,156.49,376.48,Single-ply,SBD,M
Boys,59.87,2,Luke Silvestre,Frisco,56.29,113.4,52.16,104.33,269.89,Single-ply,SBD,M
Boys,67.13,3,Grayson Kulin,Frisco Heritage,60.01,99.79,54.43,113.4,267.62,Single-ply,SBD,M
Boys,59.87,4,Jorge Quattromani,Frisco Centennial,58.47,72.57,45.36,102.06,219.99,Single-ply,SBD,M
Boys,67.13,1,Devaughn Childress,Frisco Wakeland,67.13,217.72,99.79,222.26,539.77,Single-ply,SBD,M
Boys,67.13,2,Nick Baril,Frisco Centennial,66.68,185.97,115.67,163.29,464.93,Single-ply,SBD,M
Boys,67.13,3,Brady Adams,Frisco Wakeland,66.32,176.9,95.25,154.22,426.38,Single-ply,SBD,M
Boys,67.13,4,Chase Stout,Frisco Liberty,61.92,145.15,97.52,158.76,401.43,Single-ply,SBD,M
Boys,67.13,5,Dominic Reyes,Richardson Pearce,67,142.88,92.99,145.15,381.02,Single-ply,SBD,M
Boys,67.13,6,Austin Fugina,Frisco Centennial,65,142.88,86.18,149.69,378.75,Single-ply,SBD,M
Boys,67.13,7,Darrell Reese,Frisco Liberty,60.6,136.08,74.84,136.08,347,Single-ply,SBD,M
Boys,67.13,8,Roberto Alvarado,Richardson Pearce,65.54,108.86,95.25,142.88,347,Single-ply,SBD,M
Boys,67.13,9,Ethan Miller,Frisco Centennial,66.81,124.74,65.77,138.35,328.85,Single-ply,SBD,M
Boys,67.13,10,Jack Gann,Richardson Pearce,66.22,113.4,74.84,136.08,324.32,Single-ply,SBD,M
Boys,67.13,11,Brandon Anderson,Frisco Centennial,67.13,113.4,63.5,136.08,312.98,Single-ply,SBD,M
Boys,67.13,12,Jordan Clark,Richardson Pearce,63.68,111.13,70.31,129.27,310.71,Single-ply,SBD,M
Boys,67.13,13,Jared Bowker,Frisco Centennial,65.82,102.06,74.84,108.86,285.76,Single-ply,SBD,M
Boys,67.13,14,Blake Weaver,Frisco Heritage,63.32,90.72,65.77,115.67,272.16,Single-ply,SBD,M
Boys,74.84,1,Mason Pierce,Frisco Centennial,71.76,204.12,122.47,213.19,539.77,Single-ply,SBD,M
Boys,74.84,2,Ivan Sauerzopf,Frisco Lone Star,73.3,199.58,127.01,199.58,526.17,Single-ply,SBD,M
Boys,82.1,3,Max Steitle,Frisco,75.07,170.1,117.93,172.37,460.4,Single-ply,SBD,M
Boys,74.84,4,Trevor Wilson,Frisco Centennial,73.53,170.1,102.06,181.44,453.59,Single-ply,SBD,M
Boys,74.84,5,Logan Miller,Frisco Centennial,73.98,158.76,92.99,172.37,424.11,Single-ply,SBD,M
Boys,74.84,6,Matt Carillo,Frisco Centennial,67.4,167.83,90.72,163.29,421.84,Single-ply,SBD,M
Boys,74.84,7,Taylor Fann,McKinney Boyd,71.67,154.22,86.18,158.76,399.16,Single-ply,SBD,M
Boys,74.84,8,Curtis Flowers,Frisco,70.53,158.76,79.38,149.69,387.82,Single-ply,SBD,M
Boys,74.84,9,Nic Hintz,Frisco Heritage,74.03,147.42,86.18,149.69,383.29,Single-ply,SBD,M
Boys,74.84,10,Hayden Pierce,Frisco Heritage,73.12,140.61,86.18,140.61,367.41,Single-ply,SBD,M
Boys,74.84,11,Jeff Hodgekiss,Frisco Centennial,71.26,102.06,70.31,117.93,290.3,Single-ply,SBD,M
Boys,74.84,12,Micheal Carpin,Frisco Heritage,73.16,99.79,70.31,113.4,283.5,Single-ply,SBD,M
Boys,74.84,13,Jake LoGrasso,Frisco Heritage,70.13,95.25,68.04,111.13,274.42,Single-ply,SBD,M
Boys,82.1,1,Collin Charles,Frisco Heritage,80.83,226.8,140.61,260.82,628.23,Single-ply,SBD,M
Boys,82.1,2,Rodger Williams,Richardson Lake Highlands,81.28,188.24,120.2,190.51,498.95,Single-ply,SBD,M
Boys,82.1,3,Jordan Miller #4,Frisco Centennial,78.02,190.51,113.4,183.7,487.61,Single-ply,SBD,M
Boys,82.1,4,Jadin Lewis,Frisco Centennial,82.1,188.24,113.4,181.44,483.08,Single-ply,SBD,M
Boys,82.1,5,Alex Marr,Frisco Wakeland,79.15,179.17,117.93,174.63,471.74,Single-ply,SBD,M
Boys,82.1,6,Justin McVeigh,Frisco Liberty,79.61,167.83,111.13,167.83,446.79,Single-ply,SBD,M
Boys,82.1,7,Robert Merryfield,Frisco Heritage,78.52,158.76,90.72,181.44,430.91,Single-ply,SBD,M
Boys,82.1,8,Chase Keeland,Frisco Centennial,79.42,176.9,97.52,154.22,428.64,Single-ply,SBD,M
Boys,82.1,9,Jason Cho,Richardson Pearce,81.42,156.49,115.67,156.49,428.64,Single-ply,SBD,M
Boys,82.1,10,Matt Dodson,McKinney Boyd,80.42,147.42,104.33,170.1,421.84,Single-ply,SBD,M
Boys,82.1,11,Deon Kingston,Frisco,79.15,149.69,97.52,172.37,419.57,Single-ply,SBD,M
Boys,82.1,12,Xavier Battles,Richardson Pearce,81.56,136.08,83.91,174.63,394.63,Single-ply,SBD,M
Boys,82.1,13,Neal Botteron,Frisco Heritage,76.7,122.47,108.86,158.76,390.09,Single-ply,SBD,M
Boys,82.1,14,Dedrick Scrivens,McKinney Boyd,78.15,149.69,92.99,147.42,390.09,Single-ply,SBD,M
Boys,82.1,15,Mason Brewer,Frisco,81.33,147.42,92.99,149.69,390.09,Single-ply,SBD,M
Boys,82.1,16,David Koenig,Frisco Lone Star,77.79,133.81,97.52,151.95,383.29,Single-ply,SBD,M
Boys,82.1,17,Jacob Gray,Frisco Heritage,80.88,127.01,77.11,138.35,342.46,Single-ply,SBD,M
Boys,82.1,DQ,Conner Crane,Frisco Wakeland,80.42,158.76,,,,Single-ply,SBD,M
Boys,89.81,1,Erick Perez,Frisco Liberty,88.36,224.53,151.95,188.24,564.72,Single-ply,SBD,M
Boys,89.81,2,Nick Sepper,Frisco Wakeland,89.31,233.6,113.4,195.04,542.04,Single-ply,SBD,M
Boys,89.81,3,Frankie Jesse,Frisco,86.86,183.7,147.42,188.24,519.36,Single-ply,SBD,M
Boys,89.81,4,Corbin Diaz,Frisco Lone Star,84.28,192.78,127.01,181.44,501.22,Single-ply,SBD,M
Boys,89.81,5,Travis Wendt,Frisco Liberty,87.09,181.44,136.08,183.7,501.22,Single-ply,SBD,M
Boys,89.81,6,Blake Daniels,Richardson Lake Highlands,85.87,167.83,129.27,183.7,480.81,Single-ply,SBD,M
Boys,89.81,7,Nick Ramono,McKinney Boyd,86.05,181.44,113.4,181.44,476.27,Single-ply,SBD,M
Boys,89.81,8,Donavan Baca,Frisco,86.55,158.76,104.33,190.51,453.59,Single-ply,SBD,M
Boys,89.81,9,Jonathan Simpson,Frisco Lone Star,85.41,161.03,113.4,172.37,446.79,Single-ply,SBD,M
Boys,89.81,10,Darian Morris,Richardson Lake Highlands,88.95,147.42,108.86,170.1,426.38,Single-ply,SBD,M
Boys,89.81,11,Jacob Woods,Richardson Pearce,84.64,154.22,111.13,151.95,417.3,Single-ply,SBD,M
Boys,89.81,12,Morgan Hubbard,Richardson Lake Highlands,86.32,129.27,92.99,154.22,376.48,Single-ply,SBD,M
Boys,89.81,13,Reggie Marshall,Richardson Lake Highlands,86.32,117.93,102.06,147.42,367.41,Single-ply,SBD,M
Boys,89.81,14,Jacob Livingston,Frisco Centennial,86,124.74,72.57,113.4,310.71,Single-ply,SBD,M
Boys,89.81,DQ,Chris Hendricks,Frisco Wakeland,86.5,167.83,,,,Single-ply,SBD,M
Boys,99.79,1,Tyler Carver #2,Frisco Wakeland,99.16,233.6,161.03,210.92,605.55,Single-ply,SBD,M
Boys,99.79,2,Jonathan Garza,Richardson Lake Highlands,98.75,244.94,165.56,188.24,598.74,Single-ply,SBD,M
Boys,99.79,3,Ben Laurent,Richardson Lake Highlands,95.07,231.33,127.01,229.06,587.4,Single-ply,SBD,M
Boys,99.79,4,Jon Le,Frisco Centennial,93.26,231.33,127.01,185.97,544.31,Single-ply,SBD,M
Boys,99.79,5,Emmit Morgan,Frisco Centennial,97.75,204.12,138.35,192.78,535.24,Single-ply,SBD,M
Boys,99.79,6,Dakota Lincoln,Frisco Wakeland,95.71,197.31,120.2,172.37,489.88,Single-ply,SBD,M
Boys,99.79,7,Dolan Motter,Frisco,99.02,185.97,108.86,174.63,469.47,Single-ply,SBD,M
Boys,99.79,8,Payne Matiscik,McKinney Boyd,92.8,185.97,117.93,163.29,467.2,Single-ply,SBD,M
Boys,99.79,9,Chris Robinson #6,Frisco,93.67,170.1,117.93,158.76,446.79,Single-ply,SBD,M
Boys,99.79,10,Jonathan Johnson,Richardson Lake Highlands,91.63,156.49,106.59,181.44,444.52,Single-ply,SBD,M
Boys,99.79,11,Tyler Ferguson,McKinney Boyd,92.99,154.22,97.52,163.29,415.04,Single-ply,SBD,M
Boys,99.79,12,Zach Jensen,Frisco Lone Star,95.75,120.2,99.79,136.08,356.07,Single-ply,SBD,M
Boys,99.79,13,Collin Yang,Frisco Heritage,95.16,129.27,63.5,136.08,328.85,Single-ply,SBD,M
Boys,109.77,DQ,Philip Smith,Frisco Liberty,100.02,174.63,,,,Single-ply,SBD,M
Boys,109.77,1,Jeremy Seligsohn,Frisco Wakeland,104.69,231.33,113.4,199.58,544.31,Single-ply,SBD,M
Boys,109.77,2,Lars Frederickson,Richardson Lake Highlands,108.36,192.78,133.81,215.46,542.04,Single-ply,SBD,M
Boys,109.77,3,Alex Shaheen,McKinney Boyd,104.46,215.46,124.74,195.04,535.24,Single-ply,SBD,M
Boys,109.77,4,Cole Bryant,Frisco Liberty,103.42,204.12,124.74,151.95,480.81,Single-ply,SBD,M
Boys,109.77,5,Hayden Luck,McKinney Boyd,108,185.97,115.67,156.49,458.13,Single-ply,SBD,M
Boys,109.77,6,Pete Tiano,Frisco Wakeland,109.54,174.63,97.52,170.1,442.25,Single-ply,SBD,M
Boys,109.77,7,Tyler McDonald,Frisco Centennial,102.6,174.63,97.52,158.76,430.91,Single-ply,SBD,M
Boys,109.77,8,Jack Ray,Frisco Lone Star,105.6,170.1,92.99,158.76,421.84,Single-ply,SBD,M
Boys,124.74,DQ,Josh Williams,McKinney Boyd,109.95,147.42,,,,Single-ply,SBD,M
Boys,109.77,DQ,KJ Smith,Frisco Centennial,108.54,195.04,113.4,,,Single-ply,SBD,M
Boys,124.74,1,Alex Nguyen,Frisco,111.58,226.8,147.42,215.46,589.67,Single-ply,SBD,M
Boys,124.74,2,Dominic Cabrera,Frisco Wakeland,121.7,231.33,117.93,215.46,564.72,Single-ply,SBD,M
Boys,124.74,3,Broderick Jenkins,Frisco Centennial,116.53,188.24,120.2,167.83,476.27,Single-ply,SBD,M
Boys,124.74,4,Matt Morse,McKinney Boyd,119.48,176.9,104.33,172.37,453.59,Single-ply,SBD,M
Boys,124.74,5,Nick Natour,Frisco Lone Star,113.72,163.29,117.93,158.76,439.98,Single-ply,SBD,M
Boys,124.74,6,Lohit Adusumilli,Frisco Heritage,111.95,133.81,97.52,161.03,392.36,Single-ply,SBD,M
Boys,124.74,DQ,Josh Vick,Frisco Wakeland,110.5,163.29,,,,Single-ply,SBD,M
Boys,124.74,DQ,Jeff Forst,Frisco Heritage,110.31,,,,,Single-ply,SBD,M
Boys,124.74+,1,Kent Perkins,Richardson Lake Highlands,136.08,167.83,174.63,204.12,546.58,Single-ply,SBD,M
Boys,124.74+,2,Preston Morgan,Frisco,137.39,195.04,102.06,190.51,487.61,Single-ply,SBD,M
Boys,124.74+,3,Rafael Serrano,McKinney Boyd,131.77,181.44,113.4,167.83,462.66,Single-ply,SBD,M
