Division,WeightClassKg,Place,Name,Team,BodyweightKg,Best3SquatKg,Best3BenchKg,Best3DeadliftKg,TotalKg,Equipment,Event,Sex,BirthDate
Boys,51.71,1,Kolbe Murray,Bay City,49.26,122.47,65.77,142.88,331.12,Single-ply,SBD,M,
Boys,51.71,2,Canaan Allen,Bay City,51.26,111.13,63.5,127.01,301.64,Single-ply,SBD,M,
Boys,51.71,3,Curtis Ledwig,Ganado,51.62,115.67,52.16,124.74,292.57,Single-ply,SBD,M,
Boys,55.79,1,Dustin Devore,Palacios,53.89,111.13,70.31,129.27,310.71,Single-ply,SBD,M,
Boys,59.87,1,Chad Faas,El Maton Tidehaven,57.33,142.88,88.45,140.61,371.95,Single-ply,SBD,M,
Boys,59.87,2,Adam Rabalais,Victoria St. Joseph,59.33,108.86,56.7,131.54,297.1,Single-ply,SBD,M,
Boys,67.13,1,Bryce Duke,Palacios,64.5,172.37,97.52,188.24,458.13,Single-ply,SBD,M,
Boys,67.13,2,Cain Hayden,Ganado,64.86,170.1,86.18,163.29,419.57,Single-ply,SBD,M,
Boys,67.13,3,Jonathan Lopez,Palacios,66.77,142.88,83.91,183.7,410.5,Single-ply,SBD,M,
Boys,67.13,4,Thomas Garcia,Palacios,64.41,158.76,92.99,147.42,399.16,Single-ply,SBD,M,
Boys,67.13,5,Ronnie Kimball,Bay City,61.42,120.2,61.23,127.01,308.44,Single-ply,SBD,M,
Boys,67.13,DQ,Rey Garcia,El Maton Tidehaven,67.13,,,,,Single-ply,SBD,M,
Boys,67.13,DQ,Juan Almeda,Ganado,67.13,,,,,Single-ply,SBD,M,
Boys,67.13,DQ,Luke Bures,Ganado,67.13,,,,,Single-ply,SBD,M,
Boys,67.13,DQ,Manny Calderon,Ganado,67.13,,,,,Single-ply,SBD,M,
Boys,67.13,DQ,Anthony Nguyen #3,Palacios,60.96,129.27,,,,Single-ply,SBD,M,
Boys,74.84,1,Aiden Garcia,Edna,74.12,204.12,111.13,215.46,530.7,Single-ply,SBD,M,
Boys,74.84,2,Chance McRae,Palacios,71.4,188.24,131.54,183.7,503.49,Single-ply,SBD,M,
Boys,74.84,3,Brandon Almeda,Ganado,74.12,188.24,95.25,183.7,467.2,Single-ply,SBD,M,
Boys,74.84,4,Josh Henry,Victoria St. Joseph,70.76,142.88,111.13,181.44,435.45,Single-ply,SBD,M,
Boys,74.84,5,Jacob Martinez,El Maton Tidehaven,71.76,124.74,113.4,183.7,421.84,Single-ply,SBD,M,
Boys,74.84,6,Gavin Trevino,Victoria St. Joseph,70.22,142.88,77.11,158.76,378.75,Single-ply,SBD,M,
Boys,74.84,DQ,Andrew Morris,Victoria St. Joseph,74.84,,,,,Single-ply,SBD,M,
Boys,74.84,DQ,Luke Montague,El Maton Tidehaven,74.84,,,,,Single-ply,SBD,M,
Boys,74.84,DQ,Nathan Glaze,El Maton Tidehaven,74.84,,,,,Single-ply,SBD,M,
Boys,74.84,DQ,Alexis Martinez #14,Ganado,74.84,,,,,Single-ply,SBD,M,
Boys,82.1,1,Fidel Chavez,Palacios,80.56,229.06,136.08,226.8,591.94,Single-ply,SBD,M,
Boys,82.1,2,Joseph Tate,El Maton Tidehaven,80.74,215.46,142.88,188.24,546.58,Single-ply,SBD,M,
Boys,82.1,3,Carter Kovar,Ganado,78.2,195.04,102.06,183.7,480.81,Single-ply,SBD,M,
Boys,82.1,4,Thomas Copeland,Victoria St. Joseph,79.56,183.7,97.52,190.51,471.74,Single-ply,SBD,M,
Boys,82.1,5,Gabe Weaver,Victoria St. Joseph,75.93,167.83,104.33,192.78,464.93,Single-ply,SBD,M,
Boys,82.1,DQ,John Cantu,Victoria St. Joseph,82.1,,,,,Single-ply,SBD,M,
Boys,82.1,DQ,Lebron Garcia,El Maton Tidehaven,82.1,,,,,Single-ply,SBD,M,
Boys,82.1,DQ,Fisher Keszler,El Maton Tidehaven,82.1,,,,,Single-ply,SBD,M,
Boys,82.1,DQ,Brandon Garcia,Bay City,82.1,,,,,Single-ply,SBD,M,
Boys,89.81,1,Glenn Ihde,Bay City,89.36,213.19,111.13,204.12,528.44,Single-ply,SBD,M,
Boys,89.81,2,Hersamo Guerrero,Palacios,86.82,181.44,124.74,188.24,494.42,Single-ply,SBD,M,
Boys,89.81,3,Juan Andrade,Bay City,82.83,174.63,104.33,174.63,453.59,Single-ply,SBD,M,
Boys,89.81,4,David Almeda,Ganado,87.82,183.7,97.52,145.15,426.38,Single-ply,SBD,M,
Boys,89.81,5,Kyler Estrada,Bay City,85.18,145.15,102.06,142.88,390.09,Single-ply,SBD,M,
Boys,89.81,6,Aiden Jackson,Victoria St. Joseph,85.46,95.25,45.36,129.27,269.89,Single-ply,SBD,M,
Boys,89.81,DQ,Dalton Bohannon,Edna,82.64,,,,,Single-ply,SBD,M,
Boys,99.79,1,Caden Bradford,Bay City,92.53,265.35,167.83,235.87,669.05,Single-ply,SBD,M,
Boys,99.79,2,Thomas Lopez,Victoria St. Joseph,94.62,217.72,113.4,208.65,539.77,Single-ply,SBD,M,
Boys,99.79,3,Dylan Vu,Palacios,97.89,197.31,113.4,192.78,503.49,Single-ply,SBD,M,
Boys,99.79,4,Aaron Taylor,Victoria St. Joseph,92.08,151.95,102.06,181.44,435.45,Single-ply,SBD,M,
Boys,99.79,5,Ricardo Garcia,Bay City,94.08,127.01,90.72,170.1,387.82,Single-ply,SBD,M,
Boys,109.77,1,Alex Burciaga,Bay City,104.24,199.58,113.4,192.78,505.76,Single-ply,SBD,M,
Boys,109.77,2,Connor Cornish,Victoria St. Joseph,103.96,183.7,83.91,197.31,464.93,Single-ply,SBD,M,
Boys,109.77,3,Courtney Williams,Bay City,105.6,142.88,72.57,138.35,353.8,Single-ply,SBD,M,
Boys,109.77,DQ,Jakob Pensina,Bay City,109.77,,,,,Single-ply,SBD,M,
Boys,109.77,DQ,Sean Cotton,El Maton Tidehaven,109.77,,,,,Single-ply,SBD,M,
Boys,109.77,DQ,Carson Brooks,Palacios,105.87,163.29,,,,Single-ply,SBD,M,
Boys,124.74,1,Vincent Barajas,Ganado,110.31,190.51,97.52,185.97,474,Single-ply,SBD,M,
Boys,124.74,2,Leland Aguilar,Bay City,121.93,174.63,111.13,185.97,471.74,Single-ply,SBD,M,
Boys,124.74,DQ,Noah Serrano,Victoria St. Joseph,124.74,,,,,Single-ply,SBD,M,
Boys,139.71,1,Dailynn Hernandez,Bay City,129.91,290.3,154.22,219.99,664.51,Single-ply,SBD,M,
Boys,139.71,2,Isaac Allen,Bay City,131.72,238.14,142.88,183.7,564.72,Single-ply,SBD,M,
Boys,139.71,3,Gabe Medina,Victoria St. Joseph,128.46,204.12,106.59,181.44,492.15,Single-ply,SBD,M,
